Jan 17, 2018 7:39:32 PM containerizedQuery.Master logQueryState
INFO: Start Master log with path ./Master.log
Jan 17, 2018 7:39:32 PM containerizedQuery.Master logQueryState
INFO: serializedQueryFileName= employees.txt, rabbitMQ_IP= localhost, composeFileName= docker-compose.yml.Employees, compose Version= 3.3 hostVolume= /home/david/databases/employeesTest LOG_LEVEL= verbose
Jan 17, 2018 7:39:32 PM containerizedQuery.Master logQueryState
INFO: 
HASH TEXTUALIZED FORM of QUERY:
Jan 17, 2018 7:39:32 PM containerizedQuery.Master logQueryState
INFO: 
CONSTRUCT QUERY TREE FROM TEXTUALIZED FORM:
Jan 17, 2018 7:39:32 PM containerizedQuery.Master logQueryState
INFO: buildQueryTree: 1	COMPUTE		ORDER	employees.emp_no, <					2	null	2

Jan 17, 2018 7:39:32 PM containerizedQuery.Master logQueryState
INFO: buildQueryTree: 2	COMPUTE		PROJECT	employees.emp_no, salaries.salary	3	null	1

Jan 17, 2018 7:39:32 PM containerizedQuery.Master logQueryState
INFO: buildQueryTree: 3	COMPUTE		JOIN	(CAST(julianday(salaries.to_date) - julianday(employees.hire_date) AS INT) < 730) AND (employees.emp_no == salaries.emp_no)		4	5	6	4

Jan 17, 2018 7:39:32 PM containerizedQuery.Master logQueryState
INFO: buildQueryTree: 4	COMPUTE		SELECT	salaries.salary < 200000			6	null	6

Jan 17, 2018 7:39:32 PM containerizedQuery.Master logQueryState
INFO: buildQueryTree: 6	DATA_ONLY	${HOME}/databases/employeesTest/employees.db	[salariesPart_1,salariesPart_2,salariesPart_3,salariesPart_4,salariesPart_5,salariesPart_6]	[emp_no int(11); salary int(11); from_date date; to_date date]                                       

Jan 17, 2018 7:39:32 PM containerizedQuery.Master logQueryState
INFO: buildQueryTree: 5	COMPUTE		SELECT	employees.emp_no  < 50000			7	null	1

Jan 17, 2018 7:39:32 PM containerizedQuery.Master logQueryState
INFO: buildQueryTree: 7	DATA_ONLY	${HOME}/databases/employeesTest/employees.db	employees	[emp_no int(11) PRIMARY; birth_date date; first_name  varchar(14); last_name  varchar(16); gender text; hire_date date]

Jan 17, 2018 7:39:32 PM containerizedQuery.Master logQueryState
INFO: 
NODES IN OPTIMIZED QUERY TREE
QueryNode [id=1, type=COMPUTE, operator=ORDER, predicate=employees.emp_no, <, leftId=2, rightId=null, degreesParallel=2]
QueryNode [id=2, type=COMPUTE, operator=PROJECT, predicate=employees.emp_no, salaries.salary, leftId=3, rightId=null, degreesParallel=1]
QueryNode [id=3, type=COMPUTE, operator=JOIN, predicate=(CAST(julianday(salaries.to_date) - julianday(employees.hire_date) AS INT) < 730) AND (employees.emp_no == salaries.emp_no), leftId=4, rightId=5, degreesParallel=6]
QueryNode [id=4, type=COMPUTE, operator=SELECT, predicate=salaries.salary < 200000, leftId=6, rightId=null, degreesParallel=6]
QueryNode [id=6, type=DATA_ONLY, databasePath=${HOME}/databases/employeesTest/employees.db, table=salaries, partitions= [salariesPart_1, salariesPart_2, salariesPart_3, salariesPart_4, salariesPart_5, salariesPart_6]]
QueryNode [id=5, type=COMPUTE, operator=SELECT, predicate=employees.emp_no  < 50000, leftId=7, rightId=null, degreesParallel=1]
QueryNode [id=7, type=DATA_ONLY, databasePath=${HOME}/databases/employeesTest/employees.db, table=employees, partitions= null]

Jan 17, 2018 7:39:32 PM containerizedQuery.Master logQueryState
INFO: buildDigraph: POST-ORDER, update compute container's SQL predicate, tables/schemas  

ComputeContainer {  id=C4, type= COMPUTE,
ContainerState [processing=false,
	completedInputs along Edges=
	completedOutputs along Edges=], 
operator= SELECT
predicate= salaries.salary < 200000
selectListClause=  * 
degreesParallel=6
probe=true
parallelEX=DefaultExchange 
inputTables= 
	Table [tableName=salaries, schemaSet= 
	Schema [relationName=salaries, schema=[emp_no int(11); salary int(11); from_date date; to_date date]                                       ]
 ]
outputTable= Table [tableName=C4, schemaSet= 
	Schema [relationName=salaries, schema=[emp_no int(11); salary int(11); from_date date; to_date date]                                       ]
 ]

SQL= SELECT  * FROM salaries WHERE salaries.salary < 200000;  }
Jan 17, 2018 7:39:32 PM containerizedQuery.Master logQueryState
INFO: buildDigraph: POST-ORDER, update compute container's SQL predicate, tables/schemas  

ComputeContainer {  id=C5, type= COMPUTE,
ContainerState [processing=false,
	completedInputs along Edges=
	completedOutputs along Edges=], 
operator= SELECT
predicate= employees.emp_no  < 50000
selectListClause=  * 
degreesParallel=1
probe=false
parallelEX=DefaultExchange 
inputTables= 
	Table [tableName=employees, schemaSet= 
	Schema [relationName=employees, schema=[emp_no int(11) PRIMARY; birth_date date; first_name  varchar(14); last_name  varchar(16); gender text; hire_date date]]
 ]
outputTable= Table [tableName=C5, schemaSet= 
	Schema [relationName=employees, schema=[emp_no int(11) PRIMARY; birth_date date; first_name  varchar(14); last_name  varchar(16); gender text; hire_date date]]
 ]

SQL= SELECT  * FROM employees WHERE employees.emp_no  < 50000;  }
Jan 17, 2018 7:39:32 PM containerizedQuery.Master logQueryState
INFO: buildDigraph: POST-ORDER, update compute container's SQL predicate, tables/schemas  

ComputeContainer {  id=C3, type= COMPUTE,
ContainerState [processing=false,
	completedInputs along Edges=
	completedOutputs along Edges=], 
operator= JOIN
predicate= (CAST(julianday(C4.to_date) - julianday(C5.hire_date) AS INT) < 730) AND (C5.emp_no == C4.emp_no)
selectListClause= C4.emp_no, C4.salary, C4.from_date, C4.to_date, C5.emp_no AS emp_no_employees, C5.birth_date, C5.first_name, C5.last_name, C5.gender, C5.hire_date
degreesParallel=6
probe=false
parallelEX=DefaultExchange 
inputTables= 
	Table [tableName=C4, schemaSet= 
	Schema [relationName=salaries, schema=[emp_no int(11); salary int(11); from_date date; to_date date]                                       ]
 ]
	Table [tableName=C5, schemaSet= 
	Schema [relationName=employees, schema=[emp_no int(11) PRIMARY; birth_date date; first_name  varchar(14); last_name  varchar(16); gender text; hire_date date]]
 ]
outputTable= Table [tableName=C3, schemaSet= 
	Schema [relationName=salaries, schema=[emp_no int(11); salary int(11); from_date date; to_date date]                                       ]
	Schema [relationName=employees, schema=[emp_no int(11) PRIMARY; birth_date date; first_name  varchar(14); last_name  varchar(16); gender text; hire_date date]]
 ]

SQL= SELECT C4.emp_no, C4.salary, C4.from_date, C4.to_date, C5.emp_no AS emp_no_employees, C5.birth_date, C5.first_name, C5.last_name, C5.gender, C5.hire_date FROM C4, C5 WHERE (CAST(julianday(C4.to_date) - julianday(C5.hire_date) AS INT) < 730) AND (C5.emp_no == C4.emp_no);  }
Jan 17, 2018 7:39:32 PM containerizedQuery.Master logQueryState
INFO: buildDigraph: POST-ORDER, update compute container's SQL predicate, tables/schemas  

ComputeContainer {  id=C2, type= COMPUTE,
ContainerState [processing=false,
	completedInputs along Edges=
	completedOutputs along Edges=], 
operator= PROJECT
predicate= C3.emp_no_employees, C3.salary
selectListClause=  * 
degreesParallel=1
probe=false
parallelEX=DefaultExchange 
inputTables= 
	Table [tableName=C3, schemaSet= 
	Schema [relationName=salaries, schema=[emp_no int(11); salary int(11); from_date date; to_date date]                                       ]
	Schema [relationName=employees, schema=[emp_no int(11) PRIMARY; birth_date date; first_name  varchar(14); last_name  varchar(16); gender text; hire_date date]]
 ]
outputTable= Table [tableName=C2, schemaSet= 
	Schema [relationName=salaries, schema=[emp_no int(11); salary int(11); from_date date; to_date date]                                       ]
	Schema [relationName=employees, schema=[emp_no int(11) PRIMARY; birth_date date; first_name  varchar(14); last_name  varchar(16); gender text; hire_date date]]
 ]

SQL= SELECT C3.emp_no_employees, C3.salary FROM C3;  }
Jan 17, 2018 7:39:32 PM containerizedQuery.Master logQueryState
INFO: buildDigraph: POST-ORDER, update compute container's SQL predicate, tables/schemas  

ComputeContainer {  id=C1, type= COMPUTE,
ContainerState [processing=false,
	completedInputs along Edges=
	completedOutputs along Edges=], 
operator= ORDER
predicate= C2.emp_no_employees, <
selectListClause=  * 
degreesParallel=2
probe=false
parallelEX=DefaultExchange 
inputTables= 
	Table [tableName=C2, schemaSet= 
	Schema [relationName=salaries, schema=[emp_no int(11); salary int(11); from_date date; to_date date]                                       ]
	Schema [relationName=employees, schema=[emp_no int(11) PRIMARY; birth_date date; first_name  varchar(14); last_name  varchar(16); gender text; hire_date date]]
 ]
outputTable= Table [tableName=C1, schemaSet= 
	Schema [relationName=salaries, schema=[emp_no int(11); salary int(11); from_date date; to_date date]                                       ]
	Schema [relationName=employees, schema=[emp_no int(11) PRIMARY; birth_date date; first_name  varchar(14); last_name  varchar(16); gender text; hire_date date]]
 ]

SQL= SELECT * FROM C2 ORDER BY C2.emp_no_employees DESC;  }
Jan 17, 2018 7:39:32 PM containerizedQuery.Master logQueryState
INFO: 
POPULATED DIGRAPH  with containers
Digraph<V,E> {

 VERTICES: {C1, C2, C3, C4, DC-6, C5, DC-7}
[

ComputeContainer {  id=C1, type= COMPUTE,
ContainerState [processing=false,
	completedInputs along Edges=
	completedOutputs along Edges=], 
operator= ORDER
predicate= C2.emp_no_employees, <
selectListClause=  * 
degreesParallel=2
probe=false
parallelEX=DefaultExchange 
inputTables= 
	Table [tableName=C2, schemaSet= 
	Schema [relationName=salaries, schema=[emp_no int(11); salary int(11); from_date date; to_date date]                                       ]
	Schema [relationName=employees, schema=[emp_no int(11) PRIMARY; birth_date date; first_name  varchar(14); last_name  varchar(16); gender text; hire_date date]]
 ]
outputTable= Table [tableName=C1, schemaSet= 
	Schema [relationName=salaries, schema=[emp_no int(11); salary int(11); from_date date; to_date date]                                       ]
	Schema [relationName=employees, schema=[emp_no int(11) PRIMARY; birth_date date; first_name  varchar(14); last_name  varchar(16); gender text; hire_date date]]
 ]

SQL= SELECT * FROM C2 ORDER BY C2.emp_no_employees DESC;  }, 

ComputeContainer {  id=C2, type= COMPUTE,
ContainerState [processing=false,
	completedInputs along Edges=
	completedOutputs along Edges=], 
operator= PROJECT
predicate= C3.emp_no_employees, C3.salary
selectListClause=  * 
degreesParallel=1
probe=false
parallelEX=DefaultExchange 
inputTables= 
	Table [tableName=C3, schemaSet= 
	Schema [relationName=salaries, schema=[emp_no int(11); salary int(11); from_date date; to_date date]                                       ]
	Schema [relationName=employees, schema=[emp_no int(11) PRIMARY; birth_date date; first_name  varchar(14); last_name  varchar(16); gender text; hire_date date]]
 ]
outputTable= Table [tableName=C2, schemaSet= 
	Schema [relationName=salaries, schema=[emp_no int(11); salary int(11); from_date date; to_date date]                                       ]
	Schema [relationName=employees, schema=[emp_no int(11) PRIMARY; birth_date date; first_name  varchar(14); last_name  varchar(16); gender text; hire_date date]]
 ]

SQL= SELECT C3.emp_no_employees, C3.salary FROM C3;  }, 

ComputeContainer {  id=C3, type= COMPUTE,
ContainerState [processing=false,
	completedInputs along Edges=
	completedOutputs along Edges=], 
operator= JOIN
predicate= (CAST(julianday(C4.to_date) - julianday(C5.hire_date) AS INT) < 730) AND (C5.emp_no == C4.emp_no)
selectListClause= C4.emp_no, C4.salary, C4.from_date, C4.to_date, C5.emp_no AS emp_no_employees, C5.birth_date, C5.first_name, C5.last_name, C5.gender, C5.hire_date
degreesParallel=6
probe=false
parallelEX=DefaultExchange 
inputTables= 
	Table [tableName=C4, schemaSet= 
	Schema [relationName=salaries, schema=[emp_no int(11); salary int(11); from_date date; to_date date]                                       ]
 ]
	Table [tableName=C5, schemaSet= 
	Schema [relationName=employees, schema=[emp_no int(11) PRIMARY; birth_date date; first_name  varchar(14); last_name  varchar(16); gender text; hire_date date]]
 ]
outputTable= Table [tableName=C3, schemaSet= 
	Schema [relationName=salaries, schema=[emp_no int(11); salary int(11); from_date date; to_date date]                                       ]
	Schema [relationName=employees, schema=[emp_no int(11) PRIMARY; birth_date date; first_name  varchar(14); last_name  varchar(16); gender text; hire_date date]]
 ]

SQL= SELECT C4.emp_no, C4.salary, C4.from_date, C4.to_date, C5.emp_no AS emp_no_employees, C5.birth_date, C5.first_name, C5.last_name, C5.gender, C5.hire_date FROM C4, C5 WHERE (CAST(julianday(C4.to_date) - julianday(C5.hire_date) AS INT) < 730) AND (C5.emp_no == C4.emp_no);  }, 

ComputeContainer {  id=C4, type= COMPUTE,
ContainerState [processing=false,
	completedInputs along Edges=
	completedOutputs along Edges=], 
operator= SELECT
predicate= salaries.salary < 200000
selectListClause=  * 
degreesParallel=6
probe=true
parallelEX=DefaultExchange 
inputTables= 
	Table [tableName=salaries, schemaSet= 
	Schema [relationName=salaries, schema=[emp_no int(11); salary int(11); from_date date; to_date date]                                       ]
 ]
outputTable= Table [tableName=C4, schemaSet= 
	Schema [relationName=salaries, schema=[emp_no int(11); salary int(11); from_date date; to_date date]                                       ]
 ]

SQL= SELECT  * FROM salaries WHERE salaries.salary < 200000;  }, 

DataOnlyContainer [ id=DC-6, type=DATA_ONLY,
${HOME}/databases/employeesTest/employees.db,
table=salaries, paritions=[salariesPart_1, salariesPart_2, salariesPart_3, salariesPart_4, salariesPart_5, salariesPart_6],
schema=Schema [relationName=salaries, schema=[emp_no int(11); salary int(11); from_date date; to_date date]                                       ]
 ], 

ComputeContainer {  id=C5, type= COMPUTE,
ContainerState [processing=false,
	completedInputs along Edges=
	completedOutputs along Edges=], 
operator= SELECT
predicate= employees.emp_no  < 50000
selectListClause=  * 
degreesParallel=1
probe=false
parallelEX=DefaultExchange 
inputTables= 
	Table [tableName=employees, schemaSet= 
	Schema [relationName=employees, schema=[emp_no int(11) PRIMARY; birth_date date; first_name  varchar(14); last_name  varchar(16); gender text; hire_date date]]
 ]
outputTable= Table [tableName=C5, schemaSet= 
	Schema [relationName=employees, schema=[emp_no int(11) PRIMARY; birth_date date; first_name  varchar(14); last_name  varchar(16); gender text; hire_date date]]
 ]

SQL= SELECT  * FROM employees WHERE employees.emp_no  < 50000;  }, 

DataOnlyContainer [ id=DC-7, type=DATA_ONLY,
${HOME}/databases/employeesTest/employees.db,
table=employees, paritions=null,
schema=Schema [relationName=employees, schema=[emp_no int(11) PRIMARY; birth_date date; first_name  varchar(14); last_name  varchar(16); gender text; hire_date date]]
 ]],

 EDGES:
[
 (C2,	C1), 
 (C3,	C2), 
 (C4,	C3), 
 (DC-6,	C4), 
 (C5,	C3), 
 (DC-7,	C5)]

}
Jan 17, 2018 7:39:33 PM containerizedQuery.Master logQueryState
INFO: setParallelEX: parallelExchange for C2 reset to exchange type EvenPartitionExchange 
Jan 17, 2018 7:39:33 PM containerizedQuery.Master logQueryState
INFO: addIntraOperators: Container C2, reset parallelEX to EvenPartitionExchange.

ComputeContainer {  id=C2, type= COMPUTE,
ContainerState [processing=false,
	completedInputs along Edges=
	completedOutputs along Edges=], 
operator= PROJECT
predicate= C3.emp_no_employees, C3.salary
selectListClause=  * 
degreesParallel=1
probe=false
parallelEX=EvenPartitionExchange 
inputTables= 
	Table [tableName=C3, schemaSet= 
	Schema [relationName=salaries, schema=[emp_no int(11); salary int(11); from_date date; to_date date]                                       ]
	Schema [relationName=employees, schema=[emp_no int(11) PRIMARY; birth_date date; first_name  varchar(14); last_name  varchar(16); gender text; hire_date date]]
 ]
outputTable= Table [tableName=C2, schemaSet= 
	Schema [relationName=salaries, schema=[emp_no int(11); salary int(11); from_date date; to_date date]                                       ]
	Schema [relationName=employees, schema=[emp_no int(11) PRIMARY; birth_date date; first_name  varchar(14); last_name  varchar(16); gender text; hire_date date]]
 ]

SQL= SELECT C3.emp_no_employees, C3.salary FROM C3;  }
Jan 17, 2018 7:39:33 PM containerizedQuery.Master logQueryState
INFO: addIntraOperators: Examine inbound container C4 feeding into JOIN by C3 for Probe state.

ComputeContainer {  id=C4, type= COMPUTE,
ContainerState [processing=false,
	completedInputs along Edges=
	completedOutputs along Edges=], 
operator= SELECT
predicate= salaries.salary < 200000
selectListClause=  * 
degreesParallel=6
probe=true
parallelEX=DefaultExchange 
inputTables= 
	Table [tableName=salaries, schemaSet= 
	Schema [relationName=salaries, schema=[emp_no int(11); salary int(11); from_date date; to_date date]                                       ]
 ]
outputTable= Table [tableName=C4, schemaSet= 
	Schema [relationName=salaries, schema=[emp_no int(11); salary int(11); from_date date; to_date date]                                       ]
 ]

SQL= SELECT  * FROM salaries WHERE salaries.salary < 200000;  }
Jan 17, 2018 7:39:33 PM containerizedQuery.Master logQueryState
INFO: setParallelEX: parallelExchange for C4 reset to exchange type JoinPartitionExchange 
Jan 17, 2018 7:39:33 PM containerizedQuery.Master logQueryState
INFO: addIntraOperators: Container C4, reset parallelEX to JoinPartitionExchange.

ComputeContainer {  id=C4, type= COMPUTE,
ContainerState [processing=false,
	completedInputs along Edges=
	completedOutputs along Edges=], 
operator= SELECT
predicate= salaries.salary < 200000
selectListClause=  * 
degreesParallel=6
probe=true
parallelEX=JoinPartitionExchange 
inputTables= 
	Table [tableName=salaries, schemaSet= 
	Schema [relationName=salaries, schema=[emp_no int(11); salary int(11); from_date date; to_date date]                                       ]
 ]
outputTable= Table [tableName=C4, schemaSet= 
	Schema [relationName=salaries, schema=[emp_no int(11); salary int(11); from_date date; to_date date]                                       ]
 ]

SQL= SELECT  * FROM salaries WHERE salaries.salary < 200000;  }
Jan 17, 2018 7:39:33 PM containerizedQuery.Master logQueryState
INFO: addIntraOperators: Examine inbound container C5 feeding into JOIN by C3 for Probe state.

ComputeContainer {  id=C5, type= COMPUTE,
ContainerState [processing=false,
	completedInputs along Edges=
	completedOutputs along Edges=], 
operator= SELECT
predicate= employees.emp_no  < 50000
selectListClause=  * 
degreesParallel=1
probe=false
parallelEX=DefaultExchange 
inputTables= 
	Table [tableName=employees, schemaSet= 
	Schema [relationName=employees, schema=[emp_no int(11) PRIMARY; birth_date date; first_name  varchar(14); last_name  varchar(16); gender text; hire_date date]]
 ]
outputTable= Table [tableName=C5, schemaSet= 
	Schema [relationName=employees, schema=[emp_no int(11) PRIMARY; birth_date date; first_name  varchar(14); last_name  varchar(16); gender text; hire_date date]]
 ]

SQL= SELECT  * FROM employees WHERE employees.emp_no  < 50000;  }
Jan 17, 2018 7:39:33 PM containerizedQuery.Master logQueryState
INFO: addIntraOperators: Container C5, exchange type unchanged.

ComputeContainer {  id=C5, type= COMPUTE,
ContainerState [processing=false,
	completedInputs along Edges=
	completedOutputs along Edges=], 
operator= SELECT
predicate= employees.emp_no  < 50000
selectListClause=  * 
degreesParallel=1
probe=false
parallelEX=DefaultExchange 
inputTables= 
	Table [tableName=employees, schemaSet= 
	Schema [relationName=employees, schema=[emp_no int(11) PRIMARY; birth_date date; first_name  varchar(14); last_name  varchar(16); gender text; hire_date date]]
 ]
outputTable= Table [tableName=C5, schemaSet= 
	Schema [relationName=employees, schema=[emp_no int(11) PRIMARY; birth_date date; first_name  varchar(14); last_name  varchar(16); gender text; hire_date date]]
 ]

SQL= SELECT  * FROM employees WHERE employees.emp_no  < 50000;  }
Jan 17, 2018 7:39:33 PM containerizedQuery.Master logQueryState
INFO: setParallelEX: parallelExchange for C4-2 reset to exchange type DefaultExchange 
Jan 17, 2018 7:39:33 PM containerizedQuery.Master logQueryState
INFO: setParallelEX: parallelExchange for C4-3 reset to exchange type DefaultExchange 
Jan 17, 2018 7:39:33 PM containerizedQuery.Master logQueryState
INFO: setParallelEX: parallelExchange for C4-4 reset to exchange type DefaultExchange 
Jan 17, 2018 7:39:33 PM containerizedQuery.Master logQueryState
INFO: setParallelEX: parallelExchange for C4-5 reset to exchange type DefaultExchange 
Jan 17, 2018 7:39:33 PM containerizedQuery.Master logQueryState
INFO: setParallelEX: parallelExchange for C4-6 reset to exchange type DefaultExchange 
Jan 17, 2018 7:39:33 PM containerizedQuery.Master logQueryState
INFO: setParallelEX: parallelExchange for C4 reset to exchange type DefaultExchange 
Jan 17, 2018 7:39:33 PM containerizedQuery.Master logQueryState
INFO: docker-compose.yml.Employees file
#docker-compose -f docker-compose.yml.Employees --project-name ContainerizedQuery  up -d
#docker stack deploy --compose-file docker-compose.yml.Employees query

version: '3.3'

services:

  rabbitMQ:
    image: rabbitmq:3.6.12-management
    ports:
     # allow access to rabbitmq monitor using HTTP over port 8080
     - 8080:15672
    deploy:
       replicas: 1
       restart_policy:
          condition: on-failure
       placement:
          constraints:
             - node.hostname == swarm-rabbit
    networks:
       default:
          aliases:
             - "rabbitMQ"
    hostname: ${HOSTNAME}
    stdin_open: true
    tty: true

  Master:
    image: deepeddy/mysqlite:master
    volumes:
       - ${HOME}/databases/employeesTest:/databases/employeesTest
    deploy:
       replicas: 1
       restart_policy:
          condition: none
       placement:
          constraints:
             - node.hostname == swarmmaster
    networks:
       default:
          aliases:
             - "Master"
    environment:
      DATA_PORT: 4325
      RabbitIP: rabbitMQ
      TEXTUAL_QUERY_FILE: /databases/employeesTest/employees.txt
      COMPOSE_FILE_NAME: /databases/employeesTest/docker-compose.yml.Employees.generated
      CP: .:commons-io-1.2.jar:commons-cli-1.1.jar:rabbitmq-client.jar:sqlite-jdbc-3.19.3.jar:com.sun.rowset.jar
      JVM_OPTS: '-d64 -server -XX:+UseG1GC -verbose:gc -Xms2048M'
      COMPOSE_PROJECT_NAME: ContainerizedQuery
      COMPOSE_VERSION: 3.3
    working_dir: /usr/src/containerizedQuerySources/
    command: bash -c " java -cp $${CP} $${JVM_OPTS} containerizedQuery/Master $${TEXTUAL_QUERY_FILE} $${RabbitIP}  $${COMPOSE_FILE_NAME} /databases/employeesTest 3.3 verbose;  /bin/bash -i " 
    stdin_open: true
    tty: true

  C1-2:
    image : deepeddy/mysqlite:worker
    deploy:
       replicas: 1
       restart_policy:
          condition: none
       placement:
          constraints:
             - node.hostname != swarm-rabbit
    networks:
       default:
          aliases:
             - "C1-2"
    environment:
      DATA_PORT: 4325
      RabbitIP: rabbitMQ
      WORKER_TYPE: interiorCompute
      OPERATOR: ORDER
      PREDICATE: C2.emp_no_employees, <
      QUERY: SELECT * FROM C2 ORDER BY C2.emp_no_employees DESC
      EXCHANGE: DefaultExchange 
      CP: .:commons-io-1.2.jar:commons-cli-1.1.jar:rabbitmq-client.jar:sqlite-jdbc-3.19.3.jar:com.sun.rowset.jar
      JVM_OPTS: '-d64 -server -XX:+UseG1GC -verbose:gc -Xms2048M'
      COMPOSE_PROJECT_NAME: ContainerizedQuery
    working_dir: /usr/src/containerizedQuerySources/
    command: bash -c " java -cp $${CP} $${JVM_OPTS} containerizedQuery/Worker 'jdbc:sqlite::memory:;Journal Mode=Off;Synchronous=Off;' $${RabbitIP} C1-2 interiorCompute verbose;  /bin/bash -i " 
    stdin_open: true
    tty: true

  C1-MERGE:
    image : deepeddy/mysqlite:worker
    deploy:
       replicas: 1
       restart_policy:
          condition: none
       placement:
          constraints:
             - node.hostname != swarm-rabbit
    networks:
       default:
          aliases:
             - "C1-MERGE"
    environment:
      DATA_PORT: 4325
      RabbitIP: rabbitMQ
      WORKER_TYPE: interiorCompute
      OPERATOR: SELECT
      PREDICATE: 1 = 1
      QUERY: SELECT  * FROM C1 WHERE 1 = 1
      EXCHANGE: DefaultExchange 
      CP: .:commons-io-1.2.jar:commons-cli-1.1.jar:rabbitmq-client.jar:sqlite-jdbc-3.19.3.jar:com.sun.rowset.jar
      JVM_OPTS: '-d64 -server -XX:+UseG1GC -verbose:gc -Xms2048M'
      COMPOSE_PROJECT_NAME: ContainerizedQuery
    working_dir: /usr/src/containerizedQuerySources/
    command: bash -c " java -cp $${CP} $${JVM_OPTS} containerizedQuery/Worker 'jdbc:sqlite::memory:;Journal Mode=Off;Synchronous=Off;' $${RabbitIP} C1-MERGE interiorCompute verbose;  /bin/bash -i " 
    stdin_open: true
    tty: true

  C1:
    image : deepeddy/mysqlite:worker
    deploy:
       replicas: 1
       restart_policy:
          condition: none
       placement:
          constraints:
             - node.hostname != swarm-rabbit
    networks:
       default:
          aliases:
             - "C1"
    environment:
      DATA_PORT: 4325
      RabbitIP: rabbitMQ
      WORKER_TYPE: interiorCompute
      OPERATOR: ORDER
      PREDICATE: C2.emp_no_employees, <
      QUERY: SELECT * FROM C2 ORDER BY C2.emp_no_employees DESC
      EXCHANGE: DefaultExchange 
      CP: .:commons-io-1.2.jar:commons-cli-1.1.jar:rabbitmq-client.jar:sqlite-jdbc-3.19.3.jar:com.sun.rowset.jar
      JVM_OPTS: '-d64 -server -XX:+UseG1GC -verbose:gc -Xms2048M'
      COMPOSE_PROJECT_NAME: ContainerizedQuery
    working_dir: /usr/src/containerizedQuerySources/
    command: bash -c " java -cp $${CP} $${JVM_OPTS} containerizedQuery/Worker 'jdbc:sqlite::memory:;Journal Mode=Off;Synchronous=Off;' $${RabbitIP} C1 interiorCompute verbose;  /bin/bash -i " 
    stdin_open: true
    tty: true

  C2:
    image : deepeddy/mysqlite:worker
    deploy:
       replicas: 1
       restart_policy:
          condition: none
       placement:
          constraints:
             - node.hostname != swarm-rabbit
    networks:
       default:
          aliases:
             - "C2"
    environment:
      DATA_PORT: 4325
      RabbitIP: rabbitMQ
      WORKER_TYPE: interiorCompute
      OPERATOR: PROJECT
      PREDICATE: C3.emp_no_employees, C3.salary
      QUERY: SELECT C3.emp_no_employees, C3.salary FROM C3
      EXCHANGE: EvenPartitionExchange 
      CP: .:commons-io-1.2.jar:commons-cli-1.1.jar:rabbitmq-client.jar:sqlite-jdbc-3.19.3.jar:com.sun.rowset.jar
      JVM_OPTS: '-d64 -server -XX:+UseG1GC -verbose:gc -Xms2048M'
      COMPOSE_PROJECT_NAME: ContainerizedQuery
    working_dir: /usr/src/containerizedQuerySources/
    command: bash -c " java -cp $${CP} $${JVM_OPTS} containerizedQuery/Worker 'jdbc:sqlite::memory:;Journal Mode=Off;Synchronous=Off;' $${RabbitIP} C2 interiorCompute verbose;  /bin/bash -i " 
    stdin_open: true
    tty: true

  C3-2:
    image : deepeddy/mysqlite:worker
    deploy:
       replicas: 1
       restart_policy:
          condition: none
       placement:
          constraints:
             - node.hostname != swarm-rabbit
    networks:
       default:
          aliases:
             - "C3-2"
    environment:
      DATA_PORT: 4325
      RabbitIP: rabbitMQ
      WORKER_TYPE: interiorCompute
      OPERATOR: JOIN
      PREDICATE: (CAST(julianday(C4.to_date) - julianday(C5.hire_date) AS INT) < 730) AND (C5.emp_no == C4.emp_no)
      QUERY: SELECT C4.emp_no, C4.salary, C4.from_date, C4.to_date, C5.emp_no AS emp_no_employees, C5.birth_date, C5.first_name, C5.last_name, C5.gender, C5.hire_date FROM C4, C5 WHERE (CAST(julianday(C4.to_date) - julianday(C5.hire_date) AS INT) < 730) AND (C5.emp_no == C4.emp_no)
      EXCHANGE: DefaultExchange 
      CP: .:commons-io-1.2.jar:commons-cli-1.1.jar:rabbitmq-client.jar:sqlite-jdbc-3.19.3.jar:com.sun.rowset.jar
      JVM_OPTS: '-d64 -server -XX:+UseG1GC -verbose:gc -Xms2048M'
      COMPOSE_PROJECT_NAME: ContainerizedQuery
    working_dir: /usr/src/containerizedQuerySources/
    command: bash -c " java -cp $${CP} $${JVM_OPTS} containerizedQuery/Worker 'jdbc:sqlite::memory:;Journal Mode=Off;Synchronous=Off;' $${RabbitIP} C3-2 interiorCompute verbose;  /bin/bash -i " 
    stdin_open: true
    tty: true

  C3-3:
    image : deepeddy/mysqlite:worker
    deploy:
       replicas: 1
       restart_policy:
          condition: none
       placement:
          constraints:
             - node.hostname != swarm-rabbit
    networks:
       default:
          aliases:
             - "C3-3"
    environment:
      DATA_PORT: 4325
      RabbitIP: rabbitMQ
      WORKER_TYPE: interiorCompute
      OPERATOR: JOIN
      PREDICATE: (CAST(julianday(C4.to_date) - julianday(C5.hire_date) AS INT) < 730) AND (C5.emp_no == C4.emp_no)
      QUERY: SELECT C4.emp_no, C4.salary, C4.from_date, C4.to_date, C5.emp_no AS emp_no_employees, C5.birth_date, C5.first_name, C5.last_name, C5.gender, C5.hire_date FROM C4, C5 WHERE (CAST(julianday(C4.to_date) - julianday(C5.hire_date) AS INT) < 730) AND (C5.emp_no == C4.emp_no)
      EXCHANGE: DefaultExchange 
      CP: .:commons-io-1.2.jar:commons-cli-1.1.jar:rabbitmq-client.jar:sqlite-jdbc-3.19.3.jar:com.sun.rowset.jar
      JVM_OPTS: '-d64 -server -XX:+UseG1GC -verbose:gc -Xms2048M'
      COMPOSE_PROJECT_NAME: ContainerizedQuery
    working_dir: /usr/src/containerizedQuerySources/
    command: bash -c " java -cp $${CP} $${JVM_OPTS} containerizedQuery/Worker 'jdbc:sqlite::memory:;Journal Mode=Off;Synchronous=Off;' $${RabbitIP} C3-3 interiorCompute verbose;  /bin/bash -i " 
    stdin_open: true
    tty: true

  C3-4:
    image : deepeddy/mysqlite:worker
    deploy:
       replicas: 1
       restart_policy:
          condition: none
       placement:
          constraints:
             - node.hostname != swarm-rabbit
    networks:
       default:
          aliases:
             - "C3-4"
    environment:
      DATA_PORT: 4325
      RabbitIP: rabbitMQ
      WORKER_TYPE: interiorCompute
      OPERATOR: JOIN
      PREDICATE: (CAST(julianday(C4.to_date) - julianday(C5.hire_date) AS INT) < 730) AND (C5.emp_no == C4.emp_no)
      QUERY: SELECT C4.emp_no, C4.salary, C4.from_date, C4.to_date, C5.emp_no AS emp_no_employees, C5.birth_date, C5.first_name, C5.last_name, C5.gender, C5.hire_date FROM C4, C5 WHERE (CAST(julianday(C4.to_date) - julianday(C5.hire_date) AS INT) < 730) AND (C5.emp_no == C4.emp_no)
      EXCHANGE: DefaultExchange 
      CP: .:commons-io-1.2.jar:commons-cli-1.1.jar:rabbitmq-client.jar:sqlite-jdbc-3.19.3.jar:com.sun.rowset.jar
      JVM_OPTS: '-d64 -server -XX:+UseG1GC -verbose:gc -Xms2048M'
      COMPOSE_PROJECT_NAME: ContainerizedQuery
    working_dir: /usr/src/containerizedQuerySources/
    command: bash -c " java -cp $${CP} $${JVM_OPTS} containerizedQuery/Worker 'jdbc:sqlite::memory:;Journal Mode=Off;Synchronous=Off;' $${RabbitIP} C3-4 interiorCompute verbose;  /bin/bash -i " 
    stdin_open: true
    tty: true

  C3-5:
    image : deepeddy/mysqlite:worker
    deploy:
       replicas: 1
       restart_policy:
          condition: none
       placement:
          constraints:
             - node.hostname != swarm-rabbit
    networks:
       default:
          aliases:
             - "C3-5"
    environment:
      DATA_PORT: 4325
      RabbitIP: rabbitMQ
      WORKER_TYPE: interiorCompute
      OPERATOR: JOIN
      PREDICATE: (CAST(julianday(C4.to_date) - julianday(C5.hire_date) AS INT) < 730) AND (C5.emp_no == C4.emp_no)
      QUERY: SELECT C4.emp_no, C4.salary, C4.from_date, C4.to_date, C5.emp_no AS emp_no_employees, C5.birth_date, C5.first_name, C5.last_name, C5.gender, C5.hire_date FROM C4, C5 WHERE (CAST(julianday(C4.to_date) - julianday(C5.hire_date) AS INT) < 730) AND (C5.emp_no == C4.emp_no)
      EXCHANGE: DefaultExchange 
      CP: .:commons-io-1.2.jar:commons-cli-1.1.jar:rabbitmq-client.jar:sqlite-jdbc-3.19.3.jar:com.sun.rowset.jar
      JVM_OPTS: '-d64 -server -XX:+UseG1GC -verbose:gc -Xms2048M'
      COMPOSE_PROJECT_NAME: ContainerizedQuery
    working_dir: /usr/src/containerizedQuerySources/
    command: bash -c " java -cp $${CP} $${JVM_OPTS} containerizedQuery/Worker 'jdbc:sqlite::memory:;Journal Mode=Off;Synchronous=Off;' $${RabbitIP} C3-5 interiorCompute verbose;  /bin/bash -i " 
    stdin_open: true
    tty: true

  C3-6:
    image : deepeddy/mysqlite:worker
    deploy:
       replicas: 1
       restart_policy:
          condition: none
       placement:
          constraints:
             - node.hostname != swarm-rabbit
    networks:
       default:
          aliases:
             - "C3-6"
    environment:
      DATA_PORT: 4325
      RabbitIP: rabbitMQ
      WORKER_TYPE: interiorCompute
      OPERATOR: JOIN
      PREDICATE: (CAST(julianday(C4.to_date) - julianday(C5.hire_date) AS INT) < 730) AND (C5.emp_no == C4.emp_no)
      QUERY: SELECT C4.emp_no, C4.salary, C4.from_date, C4.to_date, C5.emp_no AS emp_no_employees, C5.birth_date, C5.first_name, C5.last_name, C5.gender, C5.hire_date FROM C4, C5 WHERE (CAST(julianday(C4.to_date) - julianday(C5.hire_date) AS INT) < 730) AND (C5.emp_no == C4.emp_no)
      EXCHANGE: DefaultExchange 
      CP: .:commons-io-1.2.jar:commons-cli-1.1.jar:rabbitmq-client.jar:sqlite-jdbc-3.19.3.jar:com.sun.rowset.jar
      JVM_OPTS: '-d64 -server -XX:+UseG1GC -verbose:gc -Xms2048M'
      COMPOSE_PROJECT_NAME: ContainerizedQuery
    working_dir: /usr/src/containerizedQuerySources/
    command: bash -c " java -cp $${CP} $${JVM_OPTS} containerizedQuery/Worker 'jdbc:sqlite::memory:;Journal Mode=Off;Synchronous=Off;' $${RabbitIP} C3-6 interiorCompute verbose;  /bin/bash -i " 
    stdin_open: true
    tty: true

  C3:
    image : deepeddy/mysqlite:worker
    deploy:
       replicas: 1
       restart_policy:
          condition: none
       placement:
          constraints:
             - node.hostname != swarm-rabbit
    networks:
       default:
          aliases:
             - "C3"
    environment:
      DATA_PORT: 4325
      RabbitIP: rabbitMQ
      WORKER_TYPE: interiorCompute
      OPERATOR: JOIN
      PREDICATE: (CAST(julianday(C4.to_date) - julianday(C5.hire_date) AS INT) < 730) AND (C5.emp_no == C4.emp_no)
      QUERY: SELECT C4.emp_no, C4.salary, C4.from_date, C4.to_date, C5.emp_no AS emp_no_employees, C5.birth_date, C5.first_name, C5.last_name, C5.gender, C5.hire_date FROM C4, C5 WHERE (CAST(julianday(C4.to_date) - julianday(C5.hire_date) AS INT) < 730) AND (C5.emp_no == C4.emp_no)
      EXCHANGE: DefaultExchange 
      CP: .:commons-io-1.2.jar:commons-cli-1.1.jar:rabbitmq-client.jar:sqlite-jdbc-3.19.3.jar:com.sun.rowset.jar
      JVM_OPTS: '-d64 -server -XX:+UseG1GC -verbose:gc -Xms2048M'
      COMPOSE_PROJECT_NAME: ContainerizedQuery
    working_dir: /usr/src/containerizedQuerySources/
    command: bash -c " java -cp $${CP} $${JVM_OPTS} containerizedQuery/Worker 'jdbc:sqlite::memory:;Journal Mode=Off;Synchronous=Off;' $${RabbitIP} C3 interiorCompute verbose;  /bin/bash -i " 
    stdin_open: true
    tty: true

  C4-2:
    image : deepeddy/mysqlite:worker
    volumes:
       - ${HOME}/databases/employeesTest:/databases/employeesTest
    deploy:
       replicas: 1
       restart_policy:
          condition: none
       placement:
          constraints:
             - node.hostname != swarm-rabbit
    networks:
       default:
          aliases:
             - "C4-2"
    environment:
      DATA_PORT: 4325
      RabbitIP: rabbitMQ
      WORKER_TYPE: leafSelect
      OPERATOR: SELECT
      PREDICATE: salariesPart_2.salary < 200000
      QUERY: SELECT  * FROM salariesPart_2 WHERE salariesPart_2.salary < 200000
      EXCHANGE: DefaultExchange 
      CP: .:commons-io-1.2.jar:commons-cli-1.1.jar:rabbitmq-client.jar:sqlite-jdbc-3.19.3.jar:com.sun.rowset.jar
      JVM_OPTS: '-d64 -server -XX:+UseG1GC -verbose:gc -Xms2048M'
      COMPOSE_PROJECT_NAME: ContainerizedQuery
    working_dir: /usr/src/containerizedQuerySources/
    command: bash -c " java -cp $${CP} $${JVM_OPTS} containerizedQuery/Worker 'jdbc:sqlite:/databases/employeesTest/salariesPart_2.db' $${RabbitIP} C4-2 leafSelect verbose;  /bin/bash -i " 
    stdin_open: true
    tty: true

  C4-3:
    image : deepeddy/mysqlite:worker
    volumes:
       - ${HOME}/databases/employeesTest:/databases/employeesTest
    deploy:
       replicas: 1
       restart_policy:
          condition: none
       placement:
          constraints:
             - node.hostname != swarm-rabbit
    networks:
       default:
          aliases:
             - "C4-3"
    environment:
      DATA_PORT: 4325
      RabbitIP: rabbitMQ
      WORKER_TYPE: leafSelect
      OPERATOR: SELECT
      PREDICATE: salariesPart_3.salary < 200000
      QUERY: SELECT  * FROM salariesPart_3 WHERE salariesPart_3.salary < 200000
      EXCHANGE: DefaultExchange 
      CP: .:commons-io-1.2.jar:commons-cli-1.1.jar:rabbitmq-client.jar:sqlite-jdbc-3.19.3.jar:com.sun.rowset.jar
      JVM_OPTS: '-d64 -server -XX:+UseG1GC -verbose:gc -Xms2048M'
      COMPOSE_PROJECT_NAME: ContainerizedQuery
    working_dir: /usr/src/containerizedQuerySources/
    command: bash -c " java -cp $${CP} $${JVM_OPTS} containerizedQuery/Worker 'jdbc:sqlite:/databases/employeesTest/salariesPart_3.db' $${RabbitIP} C4-3 leafSelect verbose;  /bin/bash -i " 
    stdin_open: true
    tty: true

  C4-4:
    image : deepeddy/mysqlite:worker
    volumes:
       - ${HOME}/databases/employeesTest:/databases/employeesTest
    deploy:
       replicas: 1
       restart_policy:
          condition: none
       placement:
          constraints:
             - node.hostname != swarm-rabbit
    networks:
       default:
          aliases:
             - "C4-4"
    environment:
      DATA_PORT: 4325
      RabbitIP: rabbitMQ
      WORKER_TYPE: leafSelect
      OPERATOR: SELECT
      PREDICATE: salariesPart_4.salary < 200000
      QUERY: SELECT  * FROM salariesPart_4 WHERE salariesPart_4.salary < 200000
      EXCHANGE: DefaultExchange 
      CP: .:commons-io-1.2.jar:commons-cli-1.1.jar:rabbitmq-client.jar:sqlite-jdbc-3.19.3.jar:com.sun.rowset.jar
      JVM_OPTS: '-d64 -server -XX:+UseG1GC -verbose:gc -Xms2048M'
      COMPOSE_PROJECT_NAME: ContainerizedQuery
    working_dir: /usr/src/containerizedQuerySources/
    command: bash -c " java -cp $${CP} $${JVM_OPTS} containerizedQuery/Worker 'jdbc:sqlite:/databases/employeesTest/salariesPart_4.db' $${RabbitIP} C4-4 leafSelect verbose;  /bin/bash -i " 
    stdin_open: true
    tty: true

  C4-5:
    image : deepeddy/mysqlite:worker
    volumes:
       - ${HOME}/databases/employeesTest:/databases/employeesTest
    deploy:
       replicas: 1
       restart_policy:
          condition: none
       placement:
          constraints:
             - node.hostname != swarm-rabbit
    networks:
       default:
          aliases:
             - "C4-5"
    environment:
      DATA_PORT: 4325
      RabbitIP: rabbitMQ
      WORKER_TYPE: leafSelect
      OPERATOR: SELECT
      PREDICATE: salariesPart_5.salary < 200000
      QUERY: SELECT  * FROM salariesPart_5 WHERE salariesPart_5.salary < 200000
      EXCHANGE: DefaultExchange 
      CP: .:commons-io-1.2.jar:commons-cli-1.1.jar:rabbitmq-client.jar:sqlite-jdbc-3.19.3.jar:com.sun.rowset.jar
      JVM_OPTS: '-d64 -server -XX:+UseG1GC -verbose:gc -Xms2048M'
      COMPOSE_PROJECT_NAME: ContainerizedQuery
    working_dir: /usr/src/containerizedQuerySources/
    command: bash -c " java -cp $${CP} $${JVM_OPTS} containerizedQuery/Worker 'jdbc:sqlite:/databases/employeesTest/salariesPart_5.db' $${RabbitIP} C4-5 leafSelect verbose;  /bin/bash -i " 
    stdin_open: true
    tty: true

  C4-6:
    image : deepeddy/mysqlite:worker
    volumes:
       - ${HOME}/databases/employeesTest:/databases/employeesTest
    deploy:
       replicas: 1
       restart_policy:
          condition: none
       placement:
          constraints:
             - node.hostname != swarm-rabbit
    networks:
       default:
          aliases:
             - "C4-6"
    environment:
      DATA_PORT: 4325
      RabbitIP: rabbitMQ
      WORKER_TYPE: leafSelect
      OPERATOR: SELECT
      PREDICATE: salariesPart_6.salary < 200000
      QUERY: SELECT  * FROM salariesPart_6 WHERE salariesPart_6.salary < 200000
      EXCHANGE: DefaultExchange 
      CP: .:commons-io-1.2.jar:commons-cli-1.1.jar:rabbitmq-client.jar:sqlite-jdbc-3.19.3.jar:com.sun.rowset.jar
      JVM_OPTS: '-d64 -server -XX:+UseG1GC -verbose:gc -Xms2048M'
      COMPOSE_PROJECT_NAME: ContainerizedQuery
    working_dir: /usr/src/containerizedQuerySources/
    command: bash -c " java -cp $${CP} $${JVM_OPTS} containerizedQuery/Worker 'jdbc:sqlite:/databases/employeesTest/salariesPart_6.db' $${RabbitIP} C4-6 leafSelect verbose;  /bin/bash -i " 
    stdin_open: true
    tty: true

  C4:
    image : deepeddy/mysqlite:worker
    volumes:
       - ${HOME}/databases/employeesTest:/databases/employeesTest
    deploy:
       replicas: 1
       restart_policy:
          condition: none
       placement:
          constraints:
             - node.hostname != swarm-rabbit
    networks:
       default:
          aliases:
             - "C4"
    environment:
      DATA_PORT: 4325
      RabbitIP: rabbitMQ
      WORKER_TYPE: leafSelect
      OPERATOR: SELECT
      PREDICATE: salariesPart_1.salary < 200000
      QUERY: SELECT  * FROM salariesPart_1 WHERE salariesPart_1.salary < 200000
      EXCHANGE: DefaultExchange 
      CP: .:commons-io-1.2.jar:commons-cli-1.1.jar:rabbitmq-client.jar:sqlite-jdbc-3.19.3.jar:com.sun.rowset.jar
      JVM_OPTS: '-d64 -server -XX:+UseG1GC -verbose:gc -Xms2048M'
      COMPOSE_PROJECT_NAME: ContainerizedQuery
    working_dir: /usr/src/containerizedQuerySources/
    command: bash -c " java -cp $${CP} $${JVM_OPTS} containerizedQuery/Worker 'jdbc:sqlite:/databases/employeesTest/salariesPart_1.db' $${RabbitIP} C4 leafSelect verbose;  /bin/bash -i " 
    stdin_open: true
    tty: true

  C5:
    image : deepeddy/mysqlite:worker
    volumes:
       - ${HOME}/databases/employeesTest:/databases/employeesTest
    deploy:
       replicas: 1
       restart_policy:
          condition: none
       placement:
          constraints:
             - node.hostname != swarm-rabbit
    networks:
       default:
          aliases:
             - "C5"
    environment:
      DATA_PORT: 4325
      RabbitIP: rabbitMQ
      WORKER_TYPE: leafSelect
      OPERATOR: SELECT
      PREDICATE: employees.emp_no  < 50000
      QUERY: SELECT  * FROM employees WHERE employees.emp_no  < 50000
      EXCHANGE: DefaultExchange 
      CP: .:commons-io-1.2.jar:commons-cli-1.1.jar:rabbitmq-client.jar:sqlite-jdbc-3.19.3.jar:com.sun.rowset.jar
      JVM_OPTS: '-d64 -server -XX:+UseG1GC -verbose:gc -Xms2048M'
      COMPOSE_PROJECT_NAME: ContainerizedQuery
    working_dir: /usr/src/containerizedQuerySources/
    command: bash -c " java -cp $${CP} $${JVM_OPTS} containerizedQuery/Worker 'jdbc:sqlite:/databases/employeesTest/employees.db' $${RabbitIP} C5 leafSelect verbose;  /bin/bash -i " 
    stdin_open: true
    tty: true

networks:
   default:
      driver: overlay

Jan 17, 2018 7:39:33 PM containerizedQuery.Master logQueryState
INFO: 
DIGRAPH  MODIFIED for parallelism with ADDED intra-op containers
Digraph<V,E> {

 VERTICES: {C1, C2, C3, C4, DC-6, C5, DC-7, C1-2, C1-MERGE, C3-2, C3-3, C3-4, C3-5, C3-6, C4-2, C4-3, C4-4, C4-5, C4-6}
[

ComputeContainer {  id=C1, type= COMPUTE,
ContainerState [processing=false,
	completedInputs along Edges=
	completedOutputs along Edges=], 
operator= ORDER
predicate= C2.emp_no_employees, <
selectListClause=  * 
degreesParallel=2
probe=false
parallelEX=DefaultExchange 
inputTables= 
	Table [tableName=C2, schemaSet= 
	Schema [relationName=salaries, schema=[emp_no int(11); salary int(11); from_date date; to_date date]                                       ]
	Schema [relationName=employees, schema=[emp_no int(11) PRIMARY; birth_date date; first_name  varchar(14); last_name  varchar(16); gender text; hire_date date]]
 ]
outputTable= Table [tableName=C1, schemaSet= 
	Schema [relationName=salaries, schema=[emp_no int(11); salary int(11); from_date date; to_date date]                                       ]
	Schema [relationName=employees, schema=[emp_no int(11) PRIMARY; birth_date date; first_name  varchar(14); last_name  varchar(16); gender text; hire_date date]]
 ]

SQL= SELECT * FROM C2 ORDER BY C2.emp_no_employees DESC;  }, 

ComputeContainer {  id=C2, type= COMPUTE,
ContainerState [processing=false,
	completedInputs along Edges=
	completedOutputs along Edges=], 
operator= PROJECT
predicate= C3.emp_no_employees, C3.salary
selectListClause=  * 
degreesParallel=1
probe=false
parallelEX=EvenPartitionExchange 
inputTables= 
	Table [tableName=C3, schemaSet= 
	Schema [relationName=salaries, schema=[emp_no int(11); salary int(11); from_date date; to_date date]                                       ]
	Schema [relationName=employees, schema=[emp_no int(11) PRIMARY; birth_date date; first_name  varchar(14); last_name  varchar(16); gender text; hire_date date]]
 ]
outputTable= Table [tableName=C2, schemaSet= 
	Schema [relationName=salaries, schema=[emp_no int(11); salary int(11); from_date date; to_date date]                                       ]
	Schema [relationName=employees, schema=[emp_no int(11) PRIMARY; birth_date date; first_name  varchar(14); last_name  varchar(16); gender text; hire_date date]]
 ]

SQL= SELECT C3.emp_no_employees, C3.salary FROM C3;  }, 

ComputeContainer {  id=C3, type= COMPUTE,
ContainerState [processing=false,
	completedInputs along Edges=
	completedOutputs along Edges=], 
operator= JOIN
predicate= (CAST(julianday(C4.to_date) - julianday(C5.hire_date) AS INT) < 730) AND (C5.emp_no == C4.emp_no)
selectListClause= C4.emp_no, C4.salary, C4.from_date, C4.to_date, C5.emp_no AS emp_no_employees, C5.birth_date, C5.first_name, C5.last_name, C5.gender, C5.hire_date
degreesParallel=6
probe=false
parallelEX=DefaultExchange 
inputTables= 
	Table [tableName=C4, schemaSet= 
	Schema [relationName=salaries, schema=[emp_no int(11); salary int(11); from_date date; to_date date]                                       ]
 ]
	Table [tableName=C5, schemaSet= 
	Schema [relationName=employees, schema=[emp_no int(11) PRIMARY; birth_date date; first_name  varchar(14); last_name  varchar(16); gender text; hire_date date]]
 ]
outputTable= Table [tableName=C3, schemaSet= 
	Schema [relationName=salaries, schema=[emp_no int(11); salary int(11); from_date date; to_date date]                                       ]
	Schema [relationName=employees, schema=[emp_no int(11) PRIMARY; birth_date date; first_name  varchar(14); last_name  varchar(16); gender text; hire_date date]]
 ]

SQL= SELECT C4.emp_no, C4.salary, C4.from_date, C4.to_date, C5.emp_no AS emp_no_employees, C5.birth_date, C5.first_name, C5.last_name, C5.gender, C5.hire_date FROM C4, C5 WHERE (CAST(julianday(C4.to_date) - julianday(C5.hire_date) AS INT) < 730) AND (C5.emp_no == C4.emp_no);  }, 

ComputeContainer {  id=C4, type= COMPUTE,
ContainerState [processing=false,
	completedInputs along Edges=
	completedOutputs along Edges=], 
operator= SELECT
predicate= salariesPart_1.salary < 200000
selectListClause=  * 
degreesParallel=6
probe=true
parallelEX=DefaultExchange 
inputTables= 
	Table [tableName=salariesPart_1, schemaSet= 
	Schema [relationName=salaries, schema=[emp_no int(11); salary int(11); from_date date; to_date date]                                       ]
 ]
outputTable= Table [tableName=C4, schemaSet= 
	Schema [relationName=salaries, schema=[emp_no int(11); salary int(11); from_date date; to_date date]                                       ]
 ]

SQL= SELECT  * FROM salariesPart_1 WHERE salariesPart_1.salary < 200000;  }, 

DataOnlyContainer [ id=DC-6, type=DATA_ONLY,
${HOME}/databases/employeesTest/employees.db,
table=salaries, paritions=[salariesPart_1, salariesPart_2, salariesPart_3, salariesPart_4, salariesPart_5, salariesPart_6],
schema=Schema [relationName=salaries, schema=[emp_no int(11); salary int(11); from_date date; to_date date]                                       ]
 ], 

ComputeContainer {  id=C5, type= COMPUTE,
ContainerState [processing=false,
	completedInputs along Edges=
	completedOutputs along Edges=], 
operator= SELECT
predicate= employees.emp_no  < 50000
selectListClause=  * 
degreesParallel=1
probe=false
parallelEX=DefaultExchange 
inputTables= 
	Table [tableName=employees, schemaSet= 
	Schema [relationName=employees, schema=[emp_no int(11) PRIMARY; birth_date date; first_name  varchar(14); last_name  varchar(16); gender text; hire_date date]]
 ]
outputTable= Table [tableName=C5, schemaSet= 
	Schema [relationName=employees, schema=[emp_no int(11) PRIMARY; birth_date date; first_name  varchar(14); last_name  varchar(16); gender text; hire_date date]]
 ]

SQL= SELECT  * FROM employees WHERE employees.emp_no  < 50000;  }, 

DataOnlyContainer [ id=DC-7, type=DATA_ONLY,
${HOME}/databases/employeesTest/employees.db,
table=employees, paritions=null,
schema=Schema [relationName=employees, schema=[emp_no int(11) PRIMARY; birth_date date; first_name  varchar(14); last_name  varchar(16); gender text; hire_date date]]
 ], 

ComputeContainer {  id=C1-2, type= COMPUTE,
ContainerState [processing=false,
	completedInputs along Edges=
	completedOutputs along Edges=], 
operator= ORDER
predicate= C2.emp_no_employees, <
selectListClause=  * 
degreesParallel=2
probe=false
parallelEX=DefaultExchange 
inputTables= 
	Table [tableName=C2, schemaSet= 
	Schema [relationName=salaries, schema=[emp_no int(11); salary int(11); from_date date; to_date date]                                       ]
	Schema [relationName=employees, schema=[emp_no int(11) PRIMARY; birth_date date; first_name  varchar(14); last_name  varchar(16); gender text; hire_date date]]
 ]
outputTable= Table [tableName=C1, schemaSet= 
	Schema [relationName=salaries, schema=[emp_no int(11); salary int(11); from_date date; to_date date]                                       ]
	Schema [relationName=employees, schema=[emp_no int(11) PRIMARY; birth_date date; first_name  varchar(14); last_name  varchar(16); gender text; hire_date date]]
 ]

SQL= SELECT * FROM C2 ORDER BY C2.emp_no_employees DESC;  }, 

ComputeContainer {  id=C1-MERGE, type= MERGE,
ContainerState [processing=false,
	completedInputs along Edges=
	completedOutputs along Edges=], 
operator= SELECT
predicate= 1 = 1
selectListClause= 
degreesParallel=1
probe=false
parallelEX=DefaultExchange 
inputTables= 
	Table [tableName=C1, schemaSet= 
	Schema [relationName=salaries, schema=[emp_no int(11); salary int(11); from_date date; to_date date]                                       ]
	Schema [relationName=employees, schema=[emp_no int(11) PRIMARY; birth_date date; first_name  varchar(14); last_name  varchar(16); gender text; hire_date date]]
 ]
outputTable= Table [tableName=UNDEFINED, schemaSet= 
 ]

SQL= SELECT  * FROM C1 WHERE 1 = 1;  }, 

ComputeContainer {  id=C3-2, type= COMPUTE,
ContainerState [processing=false,
	completedInputs along Edges=
	completedOutputs along Edges=], 
operator= JOIN
predicate= (CAST(julianday(C4.to_date) - julianday(C5.hire_date) AS INT) < 730) AND (C5.emp_no == C4.emp_no)
selectListClause= C4.emp_no, C4.salary, C4.from_date, C4.to_date, C5.emp_no AS emp_no_employees, C5.birth_date, C5.first_name, C5.last_name, C5.gender, C5.hire_date
degreesParallel=6
probe=false
parallelEX=DefaultExchange 
inputTables= 
	Table [tableName=C4, schemaSet= 
	Schema [relationName=salaries, schema=[emp_no int(11); salary int(11); from_date date; to_date date]                                       ]
 ]
	Table [tableName=C5, schemaSet= 
	Schema [relationName=employees, schema=[emp_no int(11) PRIMARY; birth_date date; first_name  varchar(14); last_name  varchar(16); gender text; hire_date date]]
 ]
outputTable= Table [tableName=C3, schemaSet= 
	Schema [relationName=salaries, schema=[emp_no int(11); salary int(11); from_date date; to_date date]                                       ]
	Schema [relationName=employees, schema=[emp_no int(11) PRIMARY; birth_date date; first_name  varchar(14); last_name  varchar(16); gender text; hire_date date]]
 ]

SQL= SELECT C4.emp_no, C4.salary, C4.from_date, C4.to_date, C5.emp_no AS emp_no_employees, C5.birth_date, C5.first_name, C5.last_name, C5.gender, C5.hire_date FROM C4, C5 WHERE (CAST(julianday(C4.to_date) - julianday(C5.hire_date) AS INT) < 730) AND (C5.emp_no == C4.emp_no);  }, 

ComputeContainer {  id=C3-3, type= COMPUTE,
ContainerState [processing=false,
	completedInputs along Edges=
	completedOutputs along Edges=], 
operator= JOIN
predicate= (CAST(julianday(C4.to_date) - julianday(C5.hire_date) AS INT) < 730) AND (C5.emp_no == C4.emp_no)
selectListClause= C4.emp_no, C4.salary, C4.from_date, C4.to_date, C5.emp_no AS emp_no_employees, C5.birth_date, C5.first_name, C5.last_name, C5.gender, C5.hire_date
degreesParallel=6
probe=false
parallelEX=DefaultExchange 
inputTables= 
	Table [tableName=C4, schemaSet= 
	Schema [relationName=salaries, schema=[emp_no int(11); salary int(11); from_date date; to_date date]                                       ]
 ]
	Table [tableName=C5, schemaSet= 
	Schema [relationName=employees, schema=[emp_no int(11) PRIMARY; birth_date date; first_name  varchar(14); last_name  varchar(16); gender text; hire_date date]]
 ]
outputTable= Table [tableName=C3, schemaSet= 
	Schema [relationName=salaries, schema=[emp_no int(11); salary int(11); from_date date; to_date date]                                       ]
	Schema [relationName=employees, schema=[emp_no int(11) PRIMARY; birth_date date; first_name  varchar(14); last_name  varchar(16); gender text; hire_date date]]
 ]

SQL= SELECT C4.emp_no, C4.salary, C4.from_date, C4.to_date, C5.emp_no AS emp_no_employees, C5.birth_date, C5.first_name, C5.last_name, C5.gender, C5.hire_date FROM C4, C5 WHERE (CAST(julianday(C4.to_date) - julianday(C5.hire_date) AS INT) < 730) AND (C5.emp_no == C4.emp_no);  }, 

ComputeContainer {  id=C3-4, type= COMPUTE,
ContainerState [processing=false,
	completedInputs along Edges=
	completedOutputs along Edges=], 
operator= JOIN
predicate= (CAST(julianday(C4.to_date) - julianday(C5.hire_date) AS INT) < 730) AND (C5.emp_no == C4.emp_no)
selectListClause= C4.emp_no, C4.salary, C4.from_date, C4.to_date, C5.emp_no AS emp_no_employees, C5.birth_date, C5.first_name, C5.last_name, C5.gender, C5.hire_date
degreesParallel=6
probe=false
parallelEX=DefaultExchange 
inputTables= 
	Table [tableName=C4, schemaSet= 
	Schema [relationName=salaries, schema=[emp_no int(11); salary int(11); from_date date; to_date date]                                       ]
 ]
	Table [tableName=C5, schemaSet= 
	Schema [relationName=employees, schema=[emp_no int(11) PRIMARY; birth_date date; first_name  varchar(14); last_name  varchar(16); gender text; hire_date date]]
 ]
outputTable= Table [tableName=C3, schemaSet= 
	Schema [relationName=salaries, schema=[emp_no int(11); salary int(11); from_date date; to_date date]                                       ]
	Schema [relationName=employees, schema=[emp_no int(11) PRIMARY; birth_date date; first_name  varchar(14); last_name  varchar(16); gender text; hire_date date]]
 ]

SQL= SELECT C4.emp_no, C4.salary, C4.from_date, C4.to_date, C5.emp_no AS emp_no_employees, C5.birth_date, C5.first_name, C5.last_name, C5.gender, C5.hire_date FROM C4, C5 WHERE (CAST(julianday(C4.to_date) - julianday(C5.hire_date) AS INT) < 730) AND (C5.emp_no == C4.emp_no);  }, 

ComputeContainer {  id=C3-5, type= COMPUTE,
ContainerState [processing=false,
	completedInputs along Edges=
	completedOutputs along Edges=], 
operator= JOIN
predicate= (CAST(julianday(C4.to_date) - julianday(C5.hire_date) AS INT) < 730) AND (C5.emp_no == C4.emp_no)
selectListClause= C4.emp_no, C4.salary, C4.from_date, C4.to_date, C5.emp_no AS emp_no_employees, C5.birth_date, C5.first_name, C5.last_name, C5.gender, C5.hire_date
degreesParallel=6
probe=false
parallelEX=DefaultExchange 
inputTables= 
	Table [tableName=C4, schemaSet= 
	Schema [relationName=salaries, schema=[emp_no int(11); salary int(11); from_date date; to_date date]                                       ]
 ]
	Table [tableName=C5, schemaSet= 
	Schema [relationName=employees, schema=[emp_no int(11) PRIMARY; birth_date date; first_name  varchar(14); last_name  varchar(16); gender text; hire_date date]]
 ]
outputTable= Table [tableName=C3, schemaSet= 
	Schema [relationName=salaries, schema=[emp_no int(11); salary int(11); from_date date; to_date date]                                       ]
	Schema [relationName=employees, schema=[emp_no int(11) PRIMARY; birth_date date; first_name  varchar(14); last_name  varchar(16); gender text; hire_date date]]
 ]

SQL= SELECT C4.emp_no, C4.salary, C4.from_date, C4.to_date, C5.emp_no AS emp_no_employees, C5.birth_date, C5.first_name, C5.last_name, C5.gender, C5.hire_date FROM C4, C5 WHERE (CAST(julianday(C4.to_date) - julianday(C5.hire_date) AS INT) < 730) AND (C5.emp_no == C4.emp_no);  }, 

ComputeContainer {  id=C3-6, type= COMPUTE,
ContainerState [processing=false,
	completedInputs along Edges=
	completedOutputs along Edges=], 
operator= JOIN
predicate= (CAST(julianday(C4.to_date) - julianday(C5.hire_date) AS INT) < 730) AND (C5.emp_no == C4.emp_no)
selectListClause= C4.emp_no, C4.salary, C4.from_date, C4.to_date, C5.emp_no AS emp_no_employees, C5.birth_date, C5.first_name, C5.last_name, C5.gender, C5.hire_date
degreesParallel=6
probe=false
parallelEX=DefaultExchange 
inputTables= 
	Table [tableName=C4, schemaSet= 
	Schema [relationName=salaries, schema=[emp_no int(11); salary int(11); from_date date; to_date date]                                       ]
 ]
	Table [tableName=C5, schemaSet= 
	Schema [relationName=employees, schema=[emp_no int(11) PRIMARY; birth_date date; first_name  varchar(14); last_name  varchar(16); gender text; hire_date date]]
 ]
outputTable= Table [tableName=C3, schemaSet= 
	Schema [relationName=salaries, schema=[emp_no int(11); salary int(11); from_date date; to_date date]                                       ]
	Schema [relationName=employees, schema=[emp_no int(11) PRIMARY; birth_date date; first_name  varchar(14); last_name  varchar(16); gender text; hire_date date]]
 ]

SQL= SELECT C4.emp_no, C4.salary, C4.from_date, C4.to_date, C5.emp_no AS emp_no_employees, C5.birth_date, C5.first_name, C5.last_name, C5.gender, C5.hire_date FROM C4, C5 WHERE (CAST(julianday(C4.to_date) - julianday(C5.hire_date) AS INT) < 730) AND (C5.emp_no == C4.emp_no);  }, 

ComputeContainer {  id=C4-2, type= COMPUTE,
ContainerState [processing=false,
	completedInputs along Edges=
	completedOutputs along Edges=], 
operator= SELECT
predicate= salariesPart_2.salary < 200000
selectListClause=  * 
degreesParallel=6
probe=true
parallelEX=DefaultExchange 
inputTables= 
	Table [tableName=salariesPart_2, schemaSet= 
	Schema [relationName=salaries, schema=[emp_no int(11); salary int(11); from_date date; to_date date]                                       ]
 ]
outputTable= Table [tableName=C4, schemaSet= 
	Schema [relationName=salaries, schema=[emp_no int(11); salary int(11); from_date date; to_date date]                                       ]
 ]

SQL= SELECT  * FROM salariesPart_2 WHERE salariesPart_2.salary < 200000;  }, 

ComputeContainer {  id=C4-3, type= COMPUTE,
ContainerState [processing=false,
	completedInputs along Edges=
	completedOutputs along Edges=], 
operator= SELECT
predicate= salariesPart_3.salary < 200000
selectListClause=  * 
degreesParallel=6
probe=true
parallelEX=DefaultExchange 
inputTables= 
	Table [tableName=salariesPart_3, schemaSet= 
	Schema [relationName=salaries, schema=[emp_no int(11); salary int(11); from_date date; to_date date]                                       ]
 ]
outputTable= Table [tableName=C4, schemaSet= 
	Schema [relationName=salaries, schema=[emp_no int(11); salary int(11); from_date date; to_date date]                                       ]
 ]

SQL= SELECT  * FROM salariesPart_3 WHERE salariesPart_3.salary < 200000;  }, 

ComputeContainer {  id=C4-4, type= COMPUTE,
ContainerState [processing=false,
	completedInputs along Edges=
	completedOutputs along Edges=], 
operator= SELECT
predicate= salariesPart_4.salary < 200000
selectListClause=  * 
degreesParallel=6
probe=true
parallelEX=DefaultExchange 
inputTables= 
	Table [tableName=salariesPart_4, schemaSet= 
	Schema [relationName=salaries, schema=[emp_no int(11); salary int(11); from_date date; to_date date]                                       ]
 ]
outputTable= Table [tableName=C4, schemaSet= 
	Schema [relationName=salaries, schema=[emp_no int(11); salary int(11); from_date date; to_date date]                                       ]
 ]

SQL= SELECT  * FROM salariesPart_4 WHERE salariesPart_4.salary < 200000;  }, 

ComputeContainer {  id=C4-5, type= COMPUTE,
ContainerState [processing=false,
	completedInputs along Edges=
	completedOutputs along Edges=], 
operator= SELECT
predicate= salariesPart_5.salary < 200000
selectListClause=  * 
degreesParallel=6
probe=true
parallelEX=DefaultExchange 
inputTables= 
	Table [tableName=salariesPart_5, schemaSet= 
	Schema [relationName=salaries, schema=[emp_no int(11); salary int(11); from_date date; to_date date]                                       ]
 ]
outputTable= Table [tableName=C4, schemaSet= 
	Schema [relationName=salaries, schema=[emp_no int(11); salary int(11); from_date date; to_date date]                                       ]
 ]

SQL= SELECT  * FROM salariesPart_5 WHERE salariesPart_5.salary < 200000;  }, 

ComputeContainer {  id=C4-6, type= COMPUTE,
ContainerState [processing=false,
	completedInputs along Edges=
	completedOutputs along Edges=], 
operator= SELECT
predicate= salariesPart_6.salary < 200000
selectListClause=  * 
degreesParallel=6
probe=true
parallelEX=DefaultExchange 
inputTables= 
	Table [tableName=salariesPart_6, schemaSet= 
	Schema [relationName=salaries, schema=[emp_no int(11); salary int(11); from_date date; to_date date]                                       ]
 ]
outputTable= Table [tableName=C4, schemaSet= 
	Schema [relationName=salaries, schema=[emp_no int(11); salary int(11); from_date date; to_date date]                                       ]
 ]

SQL= SELECT  * FROM salariesPart_6 WHERE salariesPart_6.salary < 200000;  }],

 EDGES:
[
 (C2,	C1), 
 (C3,	C2), 
 (C4,	C3), 
 (DC-6,	C4), 
 (C5,	C3), 
 (DC-7,	C5), 
 (C2,	C1-2), 
 (C1,	C1-MERGE), 
 (C1-2,	C1-MERGE), 
 (C5,	C3-2), 
 (C5,	C3-3), 
 (C5,	C3-4), 
 (C5,	C3-5), 
 (C5,	C3-6), 
 (C3-2,	C2), 
 (C3-3,	C2), 
 (C3-4,	C2), 
 (C3-5,	C2), 
 (C3-6,	C2), 
 (C4-2,	C3-2), 
 (DC-6,	C4-2), 
 (C4-3,	C3-3), 
 (DC-6,	C4-3), 
 (C4-4,	C3-4), 
 (DC-6,	C4-4), 
 (C4-5,	C3-5), 
 (DC-6,	C4-5), 
 (C4-6,	C3-6), 
 (DC-6,	C4-6)]

}
Jan 17, 2018 7:39:33 PM containerizedQuery.Master logQueryState
INFO: InitQueuesAndConsumers:  rabbitMQ  answering hostname  localhost mappped to 127.0.0.1 successfully.
Jan 17, 2018 7:39:33 PM containerizedQuery.Master logQueryState
INFO: InitQueuesAndConsumers: created rabbitChannel Connection opened to rabbitMQ broker at IP 127.0.0.1
Jan 17, 2018 7:39:33 PM containerizedQuery.Master logQueryState
INFO: ALL_WORKERS_EXCHANGE  declared
Jan 17, 2018 7:39:33 PM containerizedQuery.Master logQueryState
INFO: ACK_QUE  declared and bound
Jan 17, 2018 7:39:33 PM containerizedQuery.Master logQueryState
INFO: ACK_Consumer listening
Jan 17, 2018 7:39:33 PM containerizedQuery.Master logQueryState
INFO: PROGRESS QUERY to initial SELECTION step from disk with LeafComputeContainers
Jan 17, 2018 7:39:33 PM containerizedQuery.Master logQueryState
INFO: SELECT  * FROM salariesPart_1 WHERE salariesPart_1.salary < 200000
Jan 17, 2018 7:39:33 PM containerizedQuery.Master logQueryState
INFO: SELECT  * FROM employees WHERE employees.emp_no  < 50000
Jan 17, 2018 7:39:33 PM containerizedQuery.Master logQueryState
INFO: SELECT  * FROM salariesPart_2 WHERE salariesPart_2.salary < 200000
Jan 17, 2018 7:39:33 PM containerizedQuery.Master logQueryState
INFO: SELECT  * FROM salariesPart_3 WHERE salariesPart_3.salary < 200000
Jan 17, 2018 7:39:33 PM containerizedQuery.Master logQueryState
INFO: SELECT  * FROM salariesPart_4 WHERE salariesPart_4.salary < 200000
Jan 17, 2018 7:39:33 PM containerizedQuery.Master logQueryState
INFO: SELECT  * FROM salariesPart_5 WHERE salariesPart_5.salary < 200000
Jan 17, 2018 7:39:33 PM containerizedQuery.Master logQueryState
INFO: SELECT  * FROM salariesPart_6 WHERE salariesPart_6.salary < 200000
Jan 17, 2018 7:39:33 PM containerizedQuery.Master logQueryState
INFO: handleDelivery: WORKER EDGE MESSAGE RECVD :
CtrlMsg [type=EDGE] [Sent by Worker= C2:  Edge(C2, C1)]
Jan 17, 2018 7:39:33 PM containerizedQuery.Master logQueryState
INFO:  manageQueryState: Container 'C1' STATE UPDATED:
ContainerState [processing=false,
	completedInputs along Edges=	
 (C2,	C1)
	completedOutputs along Edges=]
effected by Edge activity: CtrlMsg [type=EDGE] [Sent by Worker= C2:  Edge(C2, C1)]
Jan 17, 2018 7:39:33 PM containerizedQuery.Master logQueryState
INFO: MASTER sent CtrlMsg to Exchange: ALL_WORKERS_EXCHANGE, using  Key: C1.
CtrlMsg [type=QUERY] [containerNameId=C1, QuerySQL [container= 

ComputeContainer {  id=C1, type= COMPUTE,
ContainerState [processing=false,
	completedInputs along Edges=	
 (C2,	C1)
	completedOutputs along Edges=], 
operator= ORDER
predicate= C2.emp_no_employees, <
selectListClause=  * 
degreesParallel=2
probe=false
parallelEX=DefaultExchange 
inputTables= 
	Table [tableName=C2, schemaSet= 
	Schema [relationName=salaries, schema=[emp_no int(11); salary int(11); from_date date; to_date date]                                       ]
	Schema [relationName=employees, schema=[emp_no int(11) PRIMARY; birth_date date; first_name  varchar(14); last_name  varchar(16); gender text; hire_date date]]
 ]
outputTable= Table [tableName=C1, schemaSet= 
	Schema [relationName=salaries, schema=[emp_no int(11); salary int(11); from_date date; to_date date]                                       ]
	Schema [relationName=employees, schema=[emp_no int(11) PRIMARY; birth_date date; first_name  varchar(14); last_name  varchar(16); gender text; hire_date date]]
 ]

SQL= SELECT * FROM C2 ORDER BY C2.emp_no_employees DESC;  }
query=SELECT * FROM C2 ORDER BY C2.emp_no_employees DESC; 
destination containers= {C1-MERGE}, outputTableName=C1]]
Jan 17, 2018 7:39:33 PM containerizedQuery.Master logQueryState
INFO:  Master using rabbitMQ, published 'QuerySQL [container= 

ComputeContainer {  id=C1, type= COMPUTE,
ContainerState [processing=false,
	completedInputs along Edges=	
 (C2,	C1)
	completedOutputs along Edges=], 
operator= ORDER
predicate= C2.emp_no_employees, <
selectListClause=  * 
degreesParallel=2
probe=false
parallelEX=DefaultExchange 
inputTables= 
	Table [tableName=C2, schemaSet= 
	Schema [relationName=salaries, schema=[emp_no int(11); salary int(11); from_date date; to_date date]                                       ]
	Schema [relationName=employees, schema=[emp_no int(11) PRIMARY; birth_date date; first_name  varchar(14); last_name  varchar(16); gender text; hire_date date]]
 ]
outputTable= Table [tableName=C1, schemaSet= 
	Schema [relationName=salaries, schema=[emp_no int(11); salary int(11); from_date date; to_date date]                                       ]
	Schema [relationName=employees, schema=[emp_no int(11) PRIMARY; birth_date date; first_name  varchar(14); last_name  varchar(16); gender text; hire_date date]]
 ]

SQL= SELECT * FROM C2 ORDER BY C2.emp_no_employees DESC;  }
query=SELECT * FROM C2 ORDER BY C2.emp_no_employees DESC; 
destination containers= {C1-MERGE}, outputTableName=C1] to compute container 'C1'
CtrlMsg [type=EDGE] [Sent by Worker= C2:  Edge(C2, C1)]
Jan 17, 2018 7:39:33 PM containerizedQuery.Master logQueryState
INFO: handleDelivery: WORKER LOG MESSAGE RECVD: SIMULATED MESSAGE FROM WORKER C1
Jan 17, 2018 7:39:33 PM containerizedQuery.Master logQueryState
INFO: handleDelivery: WORKER EDGE MESSAGE RECVD :
CtrlMsg [type=EDGE] [Sent by Worker= C4:  Edge(C4, C3)]
Jan 17, 2018 7:39:33 PM containerizedQuery.Master logQueryState
INFO:  manageQueryState: Container 'C3' STATE UNAFFECTED:
ContainerState [processing=false,
	completedInputs along Edges=	
 (C4,	C3)
	completedOutputs along Edges=]
effected by Edge activity: CtrlMsg [type=EDGE] [Sent by Worker= C4:  Edge(C4, C3)]
Jan 17, 2018 7:39:33 PM containerizedQuery.Master logQueryState
INFO: handleDelivery: WORKER LOG MESSAGE RECVD: SIMULATED MESSAGE FROM WORKER C3
