Nov 27, 2017 6:30:40 PM containerizedQuery.Worker startLogger
INFO: startLogger: Start Worker log
Nov 27, 2017 6:30:40 PM containerizedQuery.Worker openRabbitConnections
INFO: openRabbitConnections: channelToRabbit established
