R Count, S Count, Total Joins
3099,3069,4711383
2939,2939,4318679
3011,3029,4560272
3049,3022,4607444
3036,3033,4601521
3044,2941,4475257
3053,2947,4487728
2927,2934,4296296
1516,1514,2295224
1480,1547,2289560
1476,1487,2194812
1525,1553,2368325
1483,1436,2129588
1444,1480,2137120
1569,1455,2282895
1504,1554,2337216
1464,1510,2210640
1508,1575,2375100
1420,1410,2002200
2328,2446,3066956
3035,3028,4593664
