{
  version: '1.0',
  defaultSchema: 'STUDENTS',
  schemas: [
    {
      name: 'STUDENTS',
      type: 'custom',
      factory: 'org.apache.calcite.adapter.jdbc.JdbcSchema$Factory',
      operand: {
        jdbcDriver: 'com.sqlite.jdbc.Driver',
        jdbcUrl: 'jdbc:sqlite://home/david/Dropbox/DBaaS_Docker_Notes/calcite/students.db',
        jdbcUser: 'root',
        jdbcPassword: 'root'
      }
    }
  ]
}