<?xml version="1.0" encoding="UTF-8"?>
<session version="1.0">
<refactoring comment="Delete resource &apos;proj4&apos;" deleteContents="false" description="Delete resource &apos;proj4&apos;" element1="/proj4" flags="7" id="org.eclipse.ltk.core.refactoring.delete.resources" resources="1" stamp="1446519693573"/>
</session>