org/apache/calcite/linq4j/test/Linq4jTest$68.class
org/apache/calcite/linq4j/test/ExpressionTest$MyEnum$1.class
org/apache/calcite/linq4j/test/Linq4jTest$90.class
org/apache/calcite/linq4j/test/Linq4jTest$50.class
org/apache/calcite/linq4j/test/Linq4jTest$40.class
org/apache/calcite/linq4j/test/Linq4jTest$87.class
org/apache/calcite/linq4j/test/ExpressionTest.class
org/apache/calcite/linq4j/test/Linq4jTest$89.class
org/apache/calcite/linq4j/test/DeterministicTest$TestDeterministicClass.class
org/apache/calcite/linq4j/test/Linq4jTest$42.class
org/apache/calcite/linq4j/tree/package-info.class
org/apache/calcite/linq4j/test/Linq4jTest$12.class
org/apache/calcite/linq4j/test/Linq4jTest$62.class
org/apache/calcite/linq4j/test/Linq4jTest$17.class
org/apache/calcite/linq4j/test/Linq4jTest$94.class
org/apache/calcite/linq4j/test/Linq4jTest$46.class
org/apache/calcite/linq4j/test/Linq4jTest$98.class
org/apache/calcite/linq4j/test/Linq4jTest$82.class
org/apache/calcite/linq4j/test/Linq4jTest$77.class
org/apache/calcite/linq4j/test/Linq4jTest$52.class
org/apache/calcite/linq4j/test/Linq4jTest$32.class
org/apache/calcite/linq4j/function/package-info.class
org/apache/calcite/linq4j/test/Linq4jTest$22.class
org/apache/calcite/linq4j/test/BlockBuilderBase.class
org/apache/calcite/linq4j/test/Linq4jTest$75.class
org/apache/calcite/linq4j/test/Linq4jTest$47.class
org/apache/calcite/linq4j/test/Linq4jTest$20.class
org/apache/calcite/linq4j/test/ExpressionTest$1.class
org/apache/calcite/linq4j/test/Linq4jTest$48.class
org/apache/calcite/linq4j/function/FunctionTest$1.class
org/apache/calcite/linq4j/test/Linq4jTest$25.class
com/example/Linq4jExample$3.class
org/apache/calcite/linq4j/test/Linq4jTest$99.class
org/apache/calcite/linq4j/test/BlockBuilderTest$1.class
org/apache/calcite/linq4j/test/PrimitiveTest$2.class
org/apache/calcite/linq4j/test/Linq4jTest$5.class
org/apache/calcite/linq4j/test/Linq4jTest$33.class
org/apache/calcite/linq4j/test/Linq4jTest$93$1.class
org/apache/calcite/linq4j/test/Linq4jTest$86$1.class
com/example/Linq4jExample$4.class
org/apache/calcite/linq4j/test/BlockBuilderTest$1$1.class
com/example/Linq4jExample$2.class
org/apache/calcite/linq4j/test/PrimitiveTest.class
org/apache/calcite/linq4j/test/Linq4jTest$96.class
org/apache/calcite/linq4j/test/Linq4jSuite.class
org/apache/calcite/linq4j/tree/TypeTest.class
org/apache/calcite/linq4j/test/Linq4jTest$78.class
org/apache/calcite/linq4j/test/Linq4jTest$38.class
org/apache/calcite/linq4j/test/Linq4jTest$23.class
com/example/Linq4jExample$Employee.class
org/apache/calcite/linq4j/function/FunctionTest$7.class
org/apache/calcite/linq4j/test/Linq4jTest$61.class
org/apache/calcite/linq4j/test/Linq4jTest$57.class
org/apache/calcite/linq4j/test/PrimitiveTest$1.class
org/apache/calcite/linq4j/test/Linq4jTest$80.class
org/apache/calcite/linq4j/test/InlinerTest.class
org/apache/calcite/linq4j/test/Linq4jTest$69.class
org/apache/calcite/linq4j/test/Linq4jTest$35.class
org/apache/calcite/linq4j/test/Linq4jTest$65.class
org/apache/calcite/linq4j/test/Linq4jTest$53.class
org/apache/calcite/linq4j/test/DeterministicTest.class
org/apache/calcite/linq4j/function/FunctionTest$3.class
org/apache/calcite/linq4j/test/Linq4jTest$26.class
org/apache/calcite/linq4j/test/Linq4jTest$Department.class
org/apache/calcite/linq4j/test/Linq4jTest$8.class
org/apache/calcite/linq4j/test/Linq4jTest$34.class
org/apache/calcite/linq4j/test/Linq4jTest$92$1.class
org/apache/calcite/linq4j/test/Linq4jTest$21.class
org/apache/calcite/linq4j/test/Linq4jTest$64.class
org/apache/calcite/linq4j/test/Linq4jTest$13.class
org/apache/calcite/linq4j/test/Linq4jTest$1.class
org/apache/calcite/linq4j/test/Linq4jTest$49.class
org/apache/calcite/linq4j/test/Linq4jTest$37.class
org/apache/calcite/linq4j/test/CorrelateJoinTest.class
com/example/Linq4jExample$1.class
org/apache/calcite/linq4j/test/Linq4jTest$60.class
org/apache/calcite/linq4j/test/Linq4jTest$3.class
org/apache/calcite/linq4j/test/Linq4jTest$6.class
org/apache/calcite/linq4j/test/Linq4jTest$73.class
org/apache/calcite/linq4j/function/FunctionTest$2.class
org/apache/calcite/linq4j/test/Linq4jTest$28.class
org/apache/calcite/linq4j/test/Linq4jTest$10.class
org/apache/calcite/linq4j/test/Linq4jTest$14.class
org/apache/calcite/linq4j/test/Linq4jTest$84.class
org/apache/calcite/linq4j/test/Linq4jTest$9.class
org/apache/calcite/linq4j/test/Linq4jTest$97.class
org/apache/calcite/linq4j/test/Linq4jTest$30.class
org/apache/calcite/linq4j/test/Linq4jTest$58.class
org/apache/calcite/linq4j/test/Linq4jTest$70.class
org/apache/calcite/linq4j/test/Linq4jTest$86.class
org/apache/calcite/linq4j/function/FunctionTest$5.class
org/apache/calcite/linq4j/test/Linq4jTest$18.class
org/apache/calcite/linq4j/test/Linq4jTest$41.class
org/apache/calcite/linq4j/test/Linq4jTest$88.class
org/apache/calcite/linq4j/test/Linq4jTest$66.class
org/apache/calcite/linq4j/function/FunctionTest$6.class
com/example/package-info.class
org/apache/calcite/linq4j/test/Linq4jTest$29.class
org/apache/calcite/linq4j/test/Linq4jTest$43.class
org/apache/calcite/linq4j/test/Linq4jTest$95.class
org/apache/calcite/linq4j/test/Linq4jTest$11.class
org/apache/calcite/linq4j/test/Linq4jTest$2.class
org/apache/calcite/linq4j/test/Linq4jTest$39.class
org/apache/calcite/linq4j/test/Linq4jTest$24.class
org/apache/calcite/linq4j/test/CorrelateJoinTest$1.class
org/apache/calcite/linq4j/test/Linq4jTest$59.class
org/apache/calcite/linq4j/test/Linq4jTest$19.class
org/apache/calcite/linq4j/test/Linq4jTest$92.class
org/apache/calcite/linq4j/test/Linq4jTest$93.class
org/apache/calcite/linq4j/test/Linq4jTest$15.class
org/apache/calcite/linq4j/test/Linq4jTest$87$1.class
org/apache/calcite/linq4j/test/Linq4jTest$76.class
org/apache/calcite/linq4j/test/Linq4jTest$74.class
org/apache/calcite/linq4j/test/Linq4jTest$54.class
org/apache/calcite/linq4j/test/Linq4jTest.class
org/apache/calcite/linq4j/test/Linq4jTest$31.class
org/apache/calcite/linq4j/test/Linq4jTest$81.class
org/apache/calcite/linq4j/test/Linq4jTest$44.class
org/apache/calcite/linq4j/test/Linq4jTest$79.class
org/apache/calcite/linq4j/test/ExpressionTest$AllType.class
org/apache/calcite/linq4j/test/ExpressionTest$MyEnum.class
org/apache/calcite/linq4j/function/FunctionTest$4.class
org/apache/calcite/linq4j/test/Linq4jTest$67.class
org/apache/calcite/linq4j/test/CorrelateJoinTest$2.class
org/apache/calcite/linq4j/test/Linq4jTest$72.class
org/apache/calcite/linq4j/test/DeterministicTest$TestClass.class
org/apache/calcite/linq4j/test/Linq4jTest$45.class
com/example/Linq4jExample.class
org/apache/calcite/linq4j/test/Linq4jTest$27.class
org/apache/calcite/linq4j/function/FunctionTest$8.class
org/apache/calcite/linq4j/test/Linq4jTest$36.class
org/apache/calcite/linq4j/test/Linq4jTest$7.class
org/apache/calcite/linq4j/test/OptimizerTest.class
org/apache/calcite/linq4j/test/Linq4jTest$85.class
org/apache/calcite/linq4j/test/Linq4jTest$Employee.class
org/apache/calcite/linq4j/test/Linq4jTest$91.class
org/apache/calcite/linq4j/test/Linq4jTest$83.class
org/apache/calcite/linq4j/function/FunctionTest.class
org/apache/calcite/linq4j/test/Linq4jTest$4.class
org/apache/calcite/linq4j/test/BlockBuilderTest.class
org/apache/calcite/linq4j/test/Linq4jTest$55.class
org/apache/calcite/linq4j/test/Linq4jTest$56.class
org/apache/calcite/linq4j/test/Linq4jTest$51.class
org/apache/calcite/linq4j/test/Linq4jTest$25$1.class
org/apache/calcite/linq4j/test/Linq4jTest$71.class
org/apache/calcite/linq4j/test/Linq4jTest$63.class
org/apache/calcite/linq4j/test/DeterministicTest$1MyDeterministicCodeOptimizer.class
org/apache/calcite/linq4j/test/Linq4jTest$16.class
org/apache/calcite/linq4j/test/package-info.class
