<?xml version="1.0" encoding="UTF-8"?>
<testsuite name="org.apache.calcite.test.PigletTest" time="14.839" tests="19" errors="0" skipped="1" failures="0">
  <properties>
    <property name="java.runtime.name" value="OpenJDK Runtime Environment"/>
    <property name="sun.boot.library.path" value="/usr/lib/jvm/java-7-openjdk-amd64/jre/lib/amd64"/>
    <property name="java.vm.version" value="24.91-b01"/>
    <property name="java.vm.vendor" value="Oracle Corporation"/>
    <property name="java.vendor.url" value="http://java.oracle.com/"/>
    <property name="path.separator" value=":"/>
    <property name="guice.disable.misplaced.annotation.check" value="true"/>
    <property name="java.vm.name" value="OpenJDK 64-Bit Server VM"/>
    <property name="file.encoding.pkg" value="sun.io"/>
    <property name="user.country" value="US"/>
    <property name="sun.java.launcher" value="SUN_STANDARD"/>
    <property name="sun.os.patch.level" value="unknown"/>
    <property name="java.vm.specification.name" value="Java Virtual Machine Specification"/>
    <property name="user.dir" value="/home/david/Dropbox/DBaaS_Docker_Notes/calcite/apache-calcite-1.5.0-src"/>
    <property name="java.runtime.version" value="1.7.0_91-b02"/>
    <property name="java.awt.graphicsenv" value="sun.awt.X11GraphicsEnvironment"/>
    <property name="java.endorsed.dirs" value="/usr/lib/jvm/java-7-openjdk-amd64/jre/lib/endorsed"/>
    <property name="os.arch" value="amd64"/>
    <property name="java.io.tmpdir" value="/tmp"/>
    <property name="line.separator" value="&#10;"/>
    <property name="java.vm.specification.vendor" value="Oracle Corporation"/>
    <property name="os.name" value="Linux"/>
    <property name="classworlds.conf" value="/usr/share/maven/bin/m2.conf"/>
    <property name="sun.jnu.encoding" value="UTF-8"/>
    <property name="java.library.path" value="/usr/java/packages/lib/amd64:/usr/lib/x86_64-linux-gnu/jni:/lib/x86_64-linux-gnu:/usr/lib/x86_64-linux-gnu:/usr/lib/jni:/lib:/usr/lib"/>
    <property name="java.specification.name" value="Java Platform API Specification"/>
    <property name="java.class.version" value="51.0"/>
    <property name="sun.management.compiler" value="HotSpot 64-Bit Tiered Compilers"/>
    <property name="os.version" value="3.16.0-55-generic"/>
    <property name="user.home" value="/root"/>
    <property name="user.timezone" value="America/Chicago"/>
    <property name="java.awt.printerjob" value="sun.print.PSPrinterJob"/>
    <property name="file.encoding" value="UTF-8"/>
    <property name="java.specification.version" value="1.7"/>
    <property name="user.name" value="root"/>
    <property name="java.class.path" value="/usr/share/maven/boot/plexus-classworlds-2.x.jar"/>
    <property name="java.vm.specification.version" value="1.7"/>
    <property name="sun.arch.data.model" value="64"/>
    <property name="java.home" value="/usr/lib/jvm/java-7-openjdk-amd64/jre"/>
    <property name="sun.java.command" value="org.codehaus.plexus.classworlds.launcher.Launcher install"/>
    <property name="java.specification.vendor" value="Oracle Corporation"/>
    <property name="user.language" value="en"/>
    <property name="awt.toolkit" value="sun.awt.X11.XToolkit"/>
    <property name="java.vm.info" value="mixed mode"/>
    <property name="java.version" value="1.7.0_91"/>
    <property name="java.ext.dirs" value="/usr/lib/jvm/java-7-openjdk-amd64/jre/lib/ext:/usr/java/packages/lib/ext"/>
    <property name="securerandom.source" value="file:/dev/./urandom"/>
    <property name="sun.boot.class.path" value="/usr/lib/jvm/java-7-openjdk-amd64/jre/lib/resources.jar:/usr/lib/jvm/java-7-openjdk-amd64/jre/lib/rt.jar:/usr/lib/jvm/java-7-openjdk-amd64/jre/lib/sunrsasign.jar:/usr/lib/jvm/java-7-openjdk-amd64/jre/lib/jsse.jar:/usr/lib/jvm/java-7-openjdk-amd64/jre/lib/jce.jar:/usr/lib/jvm/java-7-openjdk-amd64/jre/lib/charsets.jar:/usr/lib/jvm/java-7-openjdk-amd64/jre/lib/rhino.jar:/usr/lib/jvm/java-7-openjdk-amd64/jre/lib/jfr.jar:/usr/lib/jvm/java-7-openjdk-amd64/jre/classes"/>
    <property name="java.vendor" value="Oracle Corporation"/>
    <property name="maven.home" value="/usr/share/maven"/>
    <property name="file.separator" value="/"/>
    <property name="java.vendor.url.bug" value="http://bugreport.sun.com/bugreport/"/>
    <property name="sun.cpu.endian" value="little"/>
    <property name="sun.io.unicode.encoding" value="UnicodeLittle"/>
    <property name="sun.cpu.isalist" value=""/>
  </properties>
  <testcase name="testLimit" classname="org.apache.calcite.test.PigletTest" time="4.257"/>
  <testcase name="testLimitExample" classname="org.apache.calcite.test.PigletTest" time="4.85"/>
  <testcase name="testGroup" classname="org.apache.calcite.test.PigletTest" time="4.286"/>
  <testcase name="testOrder" classname="org.apache.calcite.test.PigletTest" time="0.082"/>
  <testcase name="testParseLoad" classname="org.apache.calcite.test.PigletTest" time="0.002"/>
  <testcase name="testDump" classname="org.apache.calcite.test.PigletTest" time="0.492"/>
  <testcase name="testScan" classname="org.apache.calcite.test.PigletTest" time="0.119"/>
  <testcase name="testForeach" classname="org.apache.calcite.test.PigletTest" time="0.061"/>
  <testcase name="testGroupExample" classname="org.apache.calcite.test.PigletTest" time="0.273"/>
  <testcase name="testDistinctExample" classname="org.apache.calcite.test.PigletTest" time="0.056"/>
  <testcase name="testForeachNested" classname="org.apache.calcite.test.PigletTest" time="0">
    <skipped/>
  </testcase>
  <testcase name="testFilterExample" classname="org.apache.calcite.test.PigletTest" time="0.163"/>
  <testcase name="testDumpValues" classname="org.apache.calcite.test.PigletTest" time="0.034"/>
  <testcase name="testOrderStar" classname="org.apache.calcite.test.PigletTest" time="0.044"/>
  <testcase name="testOrderExample" classname="org.apache.calcite.test.PigletTest" time="0.061"/>
  <testcase name="testFilter" classname="org.apache.calcite.test.PigletTest" time="0.043"/>
  <testcase name="testValuesNested" classname="org.apache.calcite.test.PigletTest" time="0.008"/>
  <testcase name="testParse2" classname="org.apache.calcite.test.PigletTest" time="0.003"/>
  <testcase name="testValues" classname="org.apache.calcite.test.PigletTest" time="0.005"/>
</testsuite>