/home/david/Dropbox/DBaaS_Docker_Notes/calcite/piglet/target/generated-sources/javacc/org/apache/calcite/piglet/parser/ParseException.java
/home/david/Dropbox/DBaaS_Docker_Notes/calcite/piglet/target/generated-sources/javacc/org/apache/calcite/piglet/parser/Token.java
/home/david/Dropbox/DBaaS_Docker_Notes/calcite/piglet/src/main/java/org/apache/calcite/piglet/Handler.java
/home/david/Dropbox/DBaaS_Docker_Notes/calcite/piglet/target/generated-sources/javacc/org/apache/calcite/piglet/parser/SimpleCharStream.java
/home/david/Dropbox/DBaaS_Docker_Notes/calcite/piglet/target/generated-sources/javacc/org/apache/calcite/piglet/parser/PigletParserTokenManager.java
/home/david/Dropbox/DBaaS_Docker_Notes/calcite/piglet/target/generated-sources/javacc/org/apache/calcite/piglet/parser/PigletParser.java
/home/david/Dropbox/DBaaS_Docker_Notes/calcite/piglet/src/main/java/org/apache/calcite/piglet/Ast.java
/home/david/Dropbox/DBaaS_Docker_Notes/calcite/piglet/target/generated-sources/javacc/org/apache/calcite/piglet/parser/TokenMgrError.java
/home/david/Dropbox/DBaaS_Docker_Notes/calcite/piglet/target/generated-sources/javacc/org/apache/calcite/piglet/parser/PigletParserConstants.java
/home/david/Dropbox/DBaaS_Docker_Notes/calcite/piglet/src/main/java/org/apache/calcite/piglet/package-info.java
