/home/david/Dropbox/DBaaS_Docker_Notes/calcite/apache-calcite-1.5.0-src/mongodb/src/main/java/org/apache/calcite/adapter/mongodb/MongoRel.java
/home/david/Dropbox/DBaaS_Docker_Notes/calcite/apache-calcite-1.5.0-src/mongodb/src/main/java/org/apache/calcite/adapter/mongodb/MongoToEnumerableConverter.java
/home/david/Dropbox/DBaaS_Docker_Notes/calcite/apache-calcite-1.5.0-src/mongodb/src/main/java/org/apache/calcite/adapter/mongodb/MongoMethod.java
/home/david/Dropbox/DBaaS_Docker_Notes/calcite/apache-calcite-1.5.0-src/mongodb/src/main/java/org/apache/calcite/adapter/mongodb/MongoEnumerator.java
/home/david/Dropbox/DBaaS_Docker_Notes/calcite/apache-calcite-1.5.0-src/mongodb/src/main/java/org/apache/calcite/adapter/mongodb/MongoAggregate.java
/home/david/Dropbox/DBaaS_Docker_Notes/calcite/apache-calcite-1.5.0-src/mongodb/src/main/java/org/apache/calcite/adapter/mongodb/MongoSchema.java
/home/david/Dropbox/DBaaS_Docker_Notes/calcite/apache-calcite-1.5.0-src/mongodb/src/main/java/org/apache/calcite/adapter/mongodb/MongoSort.java
/home/david/Dropbox/DBaaS_Docker_Notes/calcite/apache-calcite-1.5.0-src/mongodb/src/main/java/org/apache/calcite/adapter/mongodb/MongoProject.java
/home/david/Dropbox/DBaaS_Docker_Notes/calcite/apache-calcite-1.5.0-src/mongodb/src/main/java/org/apache/calcite/adapter/mongodb/package-info.java
/home/david/Dropbox/DBaaS_Docker_Notes/calcite/apache-calcite-1.5.0-src/mongodb/src/main/java/org/apache/calcite/adapter/mongodb/MongoFilter.java
/home/david/Dropbox/DBaaS_Docker_Notes/calcite/apache-calcite-1.5.0-src/mongodb/src/main/java/org/apache/calcite/adapter/mongodb/MongoRules.java
/home/david/Dropbox/DBaaS_Docker_Notes/calcite/apache-calcite-1.5.0-src/mongodb/src/main/java/org/apache/calcite/adapter/mongodb/MongoTable.java
/home/david/Dropbox/DBaaS_Docker_Notes/calcite/apache-calcite-1.5.0-src/mongodb/src/main/java/org/apache/calcite/adapter/mongodb/MongoTableScan.java
/home/david/Dropbox/DBaaS_Docker_Notes/calcite/apache-calcite-1.5.0-src/mongodb/src/main/java/org/apache/calcite/adapter/mongodb/MongoToEnumerableConverterRule.java
/home/david/Dropbox/DBaaS_Docker_Notes/calcite/apache-calcite-1.5.0-src/mongodb/src/main/java/org/apache/calcite/adapter/mongodb/MongoSchemaFactory.java
