-------------------------------------------------------------------------------
Test set: org.apache.calcite.tools.PlannerTest
-------------------------------------------------------------------------------
Tests run: 34, Failures: 0, Errors: 0, Skipped: 1, Time elapsed: 24.928 sec - in org.apache.calcite.tools.PlannerTest
