-------------------------------------------------------------------------------
Test set: org.apache.calcite.util.ImmutableBitSetTest
-------------------------------------------------------------------------------
Tests run: 25, Failures: 0, Errors: 0, Skipped: 0, Time elapsed: 0.271 sec - in org.apache.calcite.util.ImmutableBitSetTest
