-------------------------------------------------------------------------------
Test set: org.apache.calcite.adapter.clone.ArrayTableTest
-------------------------------------------------------------------------------
Tests run: 11, Failures: 0, Errors: 0, Skipped: 0, Time elapsed: 0.367 sec - in org.apache.calcite.adapter.clone.ArrayTableTest
