1		COMPUTE		Order		R.A1,<			2		null
2		COMPUTE		Project		R.A1,S.B1		3		null
3		COMPUTE		Join		R.A3 = S.B3		4		5
4		COMPUTE		Select		R.A2 < a		6		null
5		COMPUTE		Select		S.B2 = b		7		null
6		DATA_ONLY	file://${HOME}/databases/sqlite.db	R
7		DATA_ONLY	file://${HOME}/databases/sqlite.db	S