0,4026,3995,2578764
1,562,563,90502
2,2296,2400,1451291
3,1114,1146,842330
4,2563,2610,1997052
5,1974,1955,981595
6,2744,2716,2170302
7,178,149,19439
8,22,11,35
9,1079,1135,628339
10,3807,3755,3414822
11,494,462,132512
12,135,119,6108
13,138,141,10377
14,627,650,319091
15,1043,996,899726
16,995,945,797601
17,1447,1536,905354
18,1274,1234,840206
19,422,430,64260
20,2573,2583,1621011
21,1169,1147,717027
22,517,518,260096
23,108,97,3161
24,1043,1103,982917
25,1466,1539,1035706
26,2784,2814,2011228
27,1648,1646,1186123
28,1493,1545,726923
29,3557,3476,2375579
30,717,665,383340
31,1895,1828,1389586
