-------------------------------------------------------------------------------
Test set: org.apache.calcite.avatica.remote.RemoteMetaTest
-------------------------------------------------------------------------------
Tests run: 13, Failures: 0, Errors: 0, Skipped: 1, Time elapsed: 3.952 sec - in org.apache.calcite.avatica.remote.RemoteMetaTest
