-------------------------------------------------------------------------------
Test set: org.apache.calcite.avatica.remote.AlternatingRemoteMetaTest
-------------------------------------------------------------------------------
Tests run: 6, Failures: 0, Errors: 0, Skipped: 0, Time elapsed: 7.047 sec - in org.apache.calcite.avatica.remote.AlternatingRemoteMetaTest
