<?xml version="1.0" encoding="UTF-8"?>
<session version="1.0">
<refactoring comment="Copy package &apos;heap&apos; to &apos;proj2/src&apos;&#x0A;- Original project: &apos;proj1&apos;&#x0A;- Destination element: &apos;proj2/src&apos;&#x0A;- Original element: &apos;proj1/src/heap&apos;" description="Copy package" destination="=proj2/src" element1="/src&lt;heap" flags="589830" fragments="1" id="org.eclipse.jdt.ui.copy" policy="org.eclipse.jdt.ui.copyPackages" stamp="1443925819625" version="1.0"/>
</session>