/home/david/Dropbox/DBaaS_Docker_Notes/calcite/piglet/src/test/java/org/apache/calcite/test/Fluent.java
/home/david/Dropbox/DBaaS_Docker_Notes/calcite/piglet/src/test/java/org/apache/calcite/test/CalciteHandler.java
/home/david/Dropbox/DBaaS_Docker_Notes/calcite/piglet/src/test/java/org/apache/calcite/test/PigletTest.java
