org/apache/calcite/adapter/splunk/search/SplunkConnectionImpl.class
org/apache/calcite/adapter/splunk/util/TrustAllSslSocketFactory$1.class
org/apache/calcite/adapter/splunk/util/SocketFactoryImpl.class
org/apache/calcite/adapter/splunk/SplunkTableScan.class
org/apache/calcite/adapter/splunk/util/HttpUtils$1.class
org/apache/calcite/adapter/splunk/SplunkDriver$1.class
org/apache/calcite/adapter/splunk/search/SearchResultListener.class
org/apache/calcite/adapter/splunk/SplunkDriver$MockSplunkConnection.class
org/apache/calcite/adapter/splunk/SplunkDriver.class
org/apache/calcite/adapter/splunk/package-info.class
org/apache/calcite/adapter/splunk/SplunkPushDownRule.class
org/apache/calcite/adapter/splunk/search/SplunkConnection.class
org/apache/calcite/adapter/splunk/SplunkDriverVersion.class
org/apache/calcite/adapter/splunk/SplunkTable.class
org/apache/calcite/adapter/splunk/search/SplunkConnectionImpl$SplunkResultEnumerator.class
org/apache/calcite/adapter/splunk/util/TrustAllSslSocketFactory.class
org/apache/calcite/adapter/splunk/util/StringUtils.class
org/apache/calcite/adapter/splunk/util/HttpUtils.class
org/apache/calcite/adapter/splunk/SplunkPushDownRule$1.class
org/apache/calcite/adapter/splunk/SplunkSchema.class
org/apache/calcite/adapter/splunk/SplunkTable$SplunkTableQueryable.class
org/apache/calcite/adapter/splunk/search/package-info.class
org/apache/calcite/adapter/splunk/util/package-info.class
org/apache/calcite/adapter/splunk/SplunkDriver$WrappingSplunkConnection.class
org/apache/calcite/adapter/splunk/SplunkQuery.class
org/apache/calcite/adapter/splunk/search/SplunkConnectionImpl$CountingSearchResultListener.class
org/apache/calcite/adapter/splunk/util/TrustAllSslSocketFactory$DummyTrustManager.class
org/apache/calcite/adapter/splunk/SplunkTableScan$1.class
