-------------------------------------------------------------------------------
Test set: org.apache.calcite.avatica.FrameTest
-------------------------------------------------------------------------------
Tests run: 3, Failures: 0, Errors: 0, Skipped: 0, Time elapsed: 0.005 sec - in org.apache.calcite.avatica.FrameTest
