org/apache/calcite/avatica/remote/AvaticaHttpClientTest$2.class
org/apache/calcite/avatica/remote/ProtobufHandlerTest.class
org/apache/calcite/avatica/remote/AbstractHandlerTest.class
org/apache/calcite/avatica/util/NumberAccessorTest$1.class
org/apache/calcite/avatica/util/NumberAccessorTest.class
org/apache/calcite/avatica/remote/MetaDataOperationTest.class
org/apache/calcite/avatica/test/JsonHandlerTest.class
org/apache/calcite/avatica/test/JsonHandlerTest$NoopService.class
org/apache/calcite/avatica/test/AvaticaSqlExceptionTest.class
org/apache/calcite/avatica/remote/ProtobufTranslationImplTest$ResponseFunc.class
org/apache/calcite/avatica/test/AvaticaClientRuntimeExceptionTest.class
org/apache/calcite/avatica/remote/ErrorResponseTest.class
org/apache/calcite/avatica/remote/ProtobufTranslationImplTest.class
org/apache/calcite/avatica/remote/ProtobufTranslationImplTest$RequestFunc.class
org/apache/calcite/avatica/AvaticaConnectionTest.class
org/apache/calcite/avatica/test/JsonHandlerTest$ParameterValuesCheckingService.class
org/apache/calcite/avatica/test/ConnectStringParserTest.class
org/apache/calcite/avatica/test/AvaticaUtilsTest.class
org/apache/calcite/avatica/test/AvaticaSeverityTest.class
org/apache/calcite/avatica/remote/TypedValueTest.class
org/apache/calcite/avatica/remote/AvaticaHttpClientTest.class
org/apache/calcite/avatica/remote/AvaticaHttpClientTest$1.class
org/apache/calcite/avatica/remote/ProtobufTranslationImplTest$IdentityFunction.class
org/apache/calcite/avatica/test/package-info.class
org/apache/calcite/avatica/QueryStateTest.class
org/apache/calcite/avatica/test/ConnectStringParserTest$Quad.class
org/apache/calcite/avatica/FrameTest.class
